<svg width="57" height="57" xmlns="http://www.w3.org/2000/svg">
    <path d="M45.769 42.525c0 .627-.521 1.135-1.163 1.135h-6.047c-.643 0-1.163-.508-1.163-1.135s.52-1.136 1.163-1.136h.215l-3.506-3.423a1.118 1.118 0 0 1 0-1.607 1.186 1.186 0 0 1 1.645 0l5.151 5.03h2.542c.642 0 1.163.51 1.163 1.136zm5.137-36.043a.684.684 0 0 1-.396.348l-8.146 2.772a.733.733 0 0 1-.226.037.687.687 0 0 1-.65-.45.668.668 0 0 1 .423-.856l6.363-2.165c.295-.1.537-.312.67-.588.133-.276.147-.592.038-.878l-.578-1.525a.654.654 0 0 1 .02-.515.674.674 0 0 1 .386-.349.69.69 0 0 1 .885.397l1.234 3.253a.664.664 0 0 1-.023.52zm2.104.968a3.008 3.008 0 0 1-1.735 1.525l-6.548 2.228 2.584 9.862a1.132 1.132 0 0 1-.838 1.381 1.202 1.202 0 0 1-.289.035 1.16 1.16 0 0 1-1.126-.854l-2.552-9.74a3.02 3.02 0 0 1-.368.024c-1.281 0-2.425-.794-2.847-1.975-.546-1.533.285-3.213 1.855-3.748l5.243-1.783-.167-.44a2.864 2.864 0 0 1 .088-2.25A2.968 2.968 0 0 1 48.002.182c1.559-.563 3.296.216 3.874 1.738l1.234 3.252a2.898 2.898 0 0 1-.1 2.277zm-5.466 19.083a1.16 1.16 0 0 1-1.415-.818l-.178-.682a1.133 1.133 0 0 1 .838-1.38 1.164 1.164 0 0 1 1.415.818l.178.681a1.132 1.132 0 0 1-.838 1.381zm-32.065 19.22c-3.918 0-7.106-3.114-7.106-6.939s3.188-6.937 7.106-6.937c3.919 0 7.107 3.111 7.107 6.937 0 3.825-3.188 6.938-7.107 6.938zm9.433-6.939c0 5.077-4.232 9.208-9.433 9.208-5.2 0-9.431-4.13-9.431-9.208s4.231-9.209 9.431-9.209c5.201 0 9.433 4.132 9.433 9.21zm20.646 8.755c-1.557.211-3.472.48-5.5.764-7.975 1.117-18.896 2.648-24.961 3.023-3.144.195-6.199-.909-8.599-3.108-2.651-2.43-4.172-5.869-4.172-9.434 0-3.565 1.521-7.004 4.172-9.434 2.22-2.034 4.998-3.13 7.89-3.13.236 0 .473.007.71.021 6.717.416 19.161 2.183 27.395 3.353 1.108.157 2.136.304 3.058.433 4.541.64 9.123 3.594 9.123 8.757 0 5.198-4.579 8.143-9.116 8.755zM17.105 16.025a2.915 2.915 0 0 1-2.667-1.705h7.583c1.191 0 2.217.703 2.667 1.705h-7.583zm36.544 15.267c-1.98-1.819-4.737-3.056-7.767-3.482l-3.055-.433c-5.356-.76-12.485-1.774-18.695-2.508l-3.174-6.572h5.135c.643 0 1.163-.509 1.163-1.135 0-2.819-2.348-5.113-5.235-5.113h-8.989c-.642 0-1.162.508-1.162 1.136 0 2.818 2.348 5.112 5.235 5.112h1.282l3.024 6.263c-2.316-.25-4.427-.447-6.166-.555-3.794-.234-7.465 1.086-10.339 3.72C1.788 30.582 0 34.625 0 38.815c0 4.19 1.788 8.231 4.906 11.088.593.543 1.22 1.031 1.875 1.461l-3.787 3.697a1.117 1.117 0 0 0 0 1.606c.227.221.525.332.823.332.297 0 .595-.11.822-.33l4.26-4.16a13.73 13.73 0 0 0 6.346 1.115c6.156-.382 17.13-1.92 25.143-3.043l3.347-.469 6.713 6.556c.227.22.525.331.822.331.298 0 .596-.11.823-.33a1.118 1.118 0 0 0 0-1.608l-5.489-5.359c2.74-.496 5.222-1.673 7.047-3.356 2.191-2.02 3.349-4.624 3.349-7.53 0-2.907-1.159-5.508-3.351-7.524z"
          fill="#55B390" fill-rule="evenodd"/>
</svg>