<svg xmlns="http://www.w3.org/2000/svg" width="98.75" height="75.82">
    <path d="M83.58 17.07l-9 1.7-2.4-12.66A7.52 7.52 0 0 0 63.4.14L6.12 10.99a7.512 7.512 0 0 0-5.99 8.76l6.26 33.03a7.51 7.51 0 0 0 8.77 5.97l9-1.7 2.4 12.66a7.52 7.52 0 0 0 8.78 5.97l57.28-10.85a7.512 7.512 0 0 0 5.99-8.76l-6.26-33.03a7.51 7.51 0 0 0-8.77-5.97zM4.35 18.95a3.223 3.223 0 0 1 2.57-3.76L64.2 4.35a3.217 3.217 0 0 1 3.76 2.55l.56 2.94L4.91 21.89zm15.96 17.73l3.06 16.16-9 1.7a3.206 3.206 0 0 1-3.76-2.55L7.55 35.84l12.87-2.44a7.376 7.376 0 0 0-.11 3.28zM6.75 31.63L5.7 26.09l63.61-12.04 1.05 5.52-44.07 8.35a3.148 3.148 0 0 0-.42.09zm85.07 29L34.54 71.47a3.217 3.217 0 0 1-3.76-2.55l-6.26-33.04a3.221 3.221 0 0 1 2.31-3.69l46.44-8.8a1.419 1.419 0 0 0 .22-.05l10.88-2.06a3.211 3.211 0 0 1 3.76 2.55l6.26 33.04a3.223 3.223 0 0 1-2.57 3.76zm-27.93-25.6a10.314 10.314 0 0 0-5.92 3.43 10.323 10.323 0 1 0 2.99 15.83 10.332 10.332 0 1 0 2.93-19.26zm-6.22 16.51a6.044 6.044 0 1 1-1.77-9.32 10.231 10.231 0 0 0 1.77 9.32zm9.26-.43a6.04 6.04 0 1 1 4.83-7.06 6.056 6.056 0 0 1-4.83 7.06z"
          fill="#fad946" fill-rule="evenodd"/>
</svg>