<svg xmlns="http://www.w3.org/2000/svg" width="76" height="76">
    <path d="M39.01 73.47a1.473 1.473 0 0 0-2.1 0 1.508 1.508 0 0 0-.43 1.05 1.478 1.478 0 0 0 2.53 1.04 1.452 1.452 0 0 0 .44-1.04 1.475 1.475 0 0 0-.44-1.05zm29.06-24.92l-4.95-1.18V45.4a9.8 9.8 0 0 0 4.57-8.28v-5.53a9.79 9.79 0 0 0-17.12-6.5 13.1 13.1 0 0 0-12.55-9.44 13.081 13.081 0 0 0-12.56 9.47 9.793 9.793 0 0 0-17.15 6.47v5.53a9.8 9.8 0 0 0 4.57 8.28v1.97l-4.95 1.18A10.3 10.3 0 0 0 0 58.6v9.98a1.477 1.477 0 0 0 1.48 1.48h11.87v4.46A1.485 1.485 0 0 0 14.84 76h16.28a1.485 1.485 0 1 0 0-2.97H24.5V66.5a1.485 1.485 0 1 0-2.97 0v6.53h-5.21v-6.7a10.805 10.805 0 0 1 8.32-10.54l7.3-1.75 4.7 10.69a1.475 1.475 0 0 0 1.35.89 1.479 1.479 0 0 0 1.36-.89l4.7-10.67 7.27 1.74a10.8 10.8 0 0 1 8.33 10.54V68a1.4 1.4 0 0 0-.12.58 1.435 1.435 0 0 0 .12.58v3.87h-5.18V66.5a1.485 1.485 0 1 0-2.97 0v6.53h-7.27a1.485 1.485 0 0 0 0 2.97h16.9a1.485 1.485 0 0 0 1.49-1.48v-4.46h11.9A1.477 1.477 0 0 0 76 68.58V58.6a10.3 10.3 0 0 0-7.93-10.05zM57.9 24.76a6.839 6.839 0 0 1 6.83 6.83v.51h-4.25a18.316 18.316 0 0 1-9.14-2.44 6.852 6.852 0 0 1 6.56-4.9zm-6.83 12.12l.01-4a21.233 21.233 0 0 0 9.4 2.19h4.25v2.05a6.83 6.83 0 1 1-13.66 0v-.24zm-23.15-8.17a10.1 10.1 0 0 1 20.19 0v.2l-5.51-3.24a1.479 1.479 0 0 0-1.89.33 11.223 11.223 0 0 1-8.61 4.02h-4.18v-1.31zm-16.65 3.24v-.36a6.835 6.835 0 0 1 13.39-1.93 18.316 18.316 0 0 1-9.14 2.44h-4.25v-.15zm0 5.17v-2.05h4.25a21.275 21.275 0 0 0 9.41-2.19v4.24a6.83 6.83 0 0 1-13.66 0zm2.08 29.21v.76H8.91V60.5a1.485 1.485 0 1 0-2.97 0v6.59H2.97V58.6a7.33 7.33 0 0 1 5.65-7.16l4.71-1.13 3.07 7.36a13.793 13.793 0 0 0-3.05 8.66zm4.75-12.28l-2.25-5.4v-2a9.89 9.89 0 0 0 2.25.26 9.738 9.738 0 0 0 2.24-.26v1.88a.66.66 0 0 0 .01.14zm5.85-1.15a14.571 14.571 0 0 0-2.51.87l1.44-3.46 4.71 1.12a7.738 7.738 0 0 1 1.06.35zm7.36-3.09a9.975 9.975 0 0 0-3.03-1.26l-4.97-1.19v-1.95a9.854 9.854 0 0 0 3.07-3.06 13.2 13.2 0 0 0 4.93 5.28v2.18zm10.39 2.2l-3.71 8.43L34.28 52v-3.06a13.21 13.21 0 0 0 3.74.54 12.842 12.842 0 0 0 3.68-.53v3.06zm-3.68-5.5a10.108 10.108 0 0 1-10.1-10.09v-3.43h4.18a14.156 14.156 0 0 0 10.03-4.15l5.97 3.51v4.42a10.1 10.1 0 0 1-10.08 9.74zm6.65 1.14a13.136 13.136 0 0 0 4.97-5.27 9.8 9.8 0 0 0 3.05 3.03v1.95l-4.97 1.19a10.371 10.371 0 0 0-3.05 1.27v-2.17zm7.34 5.26l-4.69-1.12a6.957 6.957 0 0 1 1.09-.36l4.7-1.12 1.45 3.48a13.71 13.71 0 0 0-2.55-.88zm3.64-4.22c0-.05.01-.11.01-.16v-1.88a9.738 9.738 0 0 0 2.24.26 9.89 9.89 0 0 0 2.25-.26v1.97l-2.27 5.43zm17.38 18.4h-2.97V60.5a1.485 1.485 0 1 0-2.97 0v6.59h-4.47v-.75a13.735 13.735 0 0 0-3.04-8.65l3.08-7.38 4.72 1.13a7.33 7.33 0 0 1 5.65 7.16v8.49zM34.07 34.76a1.5 1.5 0 0 0-2.1 0 1.5 1.5 0 0 0 0 2.1 1.485 1.485 0 1 0 2.1-2.1zm9.93 0a1.483 1.483 0 0 0-1.05-.43 1.466 1.466 0 0 0-1.05.43 1.473 1.473 0 0 0 0 2.1 1.466 1.466 0 0 0 1.05.43 1.483 1.483 0 0 0 1.05-.43 1.5 1.5 0 0 0 0-2.1zm-3.14 5a1.485 1.485 0 0 0-2.1 0 1.123 1.123 0 0 1-1.59 0 1.485 1.485 0 1 0-2.1 2.1 4.116 4.116 0 0 0 5.79 0 1.485 1.485 0 0 0 0-2.1zM61.38 8.02h-1.02a1.48 1.48 0 1 0 0 2.96h1.02a1.48 1.48 0 0 0 0-2.96zm7.2 0h-1.02a1.48 1.48 0 0 0 0 2.96h1.02a1.48 1.48 0 0 0 0-2.96zm-4.11 3.09a1.485 1.485 0 0 0-1.49 1.48v1.02a1.485 1.485 0 0 0 2.97 0v-1.02a1.477 1.477 0 0 0-1.48-1.48zm0-7.2a1.485 1.485 0 0 0-1.49 1.48v1.02a1.485 1.485 0 0 0 2.97 0V5.39a1.477 1.477 0 0 0-1.48-1.48zM8.36 8.02H7.34a1.48 1.48 0 1 0 0 2.96h1.02a1.48 1.48 0 0 0 0-2.96zm7.2 0h-1.02a1.48 1.48 0 0 0 0 2.96h1.02a1.48 1.48 0 0 0 0-2.96zm-4.11 3.09a1.477 1.477 0 0 0-1.48 1.48v1.02a1.48 1.48 0 0 0 2.96 0v-1.02a1.477 1.477 0 0 0-1.48-1.48zm0-7.2a1.477 1.477 0 0 0-1.48 1.48v1.02a1.48 1.48 0 0 0 2.96 0V5.39a1.477 1.477 0 0 0-1.48-1.48zM38 5.65a1.485 1.485 0 0 0-1.48 1.49v3.9a1.48 1.48 0 1 0 2.96 0v-3.9A1.485 1.485 0 0 0 38 5.65zM39.05.44a1.473 1.473 0 0 0-2.1 0 1.485 1.485 0 0 0 0 2.09 1.473 1.473 0 0 0 2.1 0 1.485 1.485 0 0 0 0-2.09zM32.8 5.95l-2.17-2.17a1.485 1.485 0 1 0-2.1 2.1l2.17 2.17a1.485 1.485 0 0 0 2.1-2.1zM47.47 3.7a1.485 1.485 0 0 0-2.1 0l-2.24 2.25a1.485 1.485 0 0 0 2.1 2.1l2.24-2.25a1.485 1.485 0 0 0 0-2.1z"
          fill="#fff" fill-rule="evenodd"/>
</svg>