<svg id="Layer_1" xmlns="http://www.w3.org/2000/svg" viewBox="0 0 90 84">
    <style>.st0{fill:#00b78d}</style>
    <path class="st0"
          d="M54.9 25.7c0-.1-.1-.1-.1-.1-.4-.7-1.2-1.6-2.3-2.6l-1-1c-.2-.3-.3-.6-.2-1 .1-.2.5-.8 1.1-1.6.3-.4.6-.8.8-1 1.4-1.8 2-3 1.8-3.5l-.1-.1c0-.1-.2-.1-.4-.2s-.5-.1-.8 0h-3.9l-.1.1c0 .1-.1.1-.1.2-.4 1-.8 1.8-1.3 2.7-.3.5-.6.9-.8 1.3-.2.4-.5.6-.6.8-.2.2-.3.3-.5.4-.1.1-.2.1-.3.1h-.2l-.3-.3c-.1-.1-.1-.3-.1-.5v-4.6c0-.1-.1-.3-.1-.4-.1-.1-.1-.2-.2-.3-.1-.1-.2-.1-.4-.2-.4-.1-1-.1-1.6-.2-1.5 0-2.4.1-2.9.3-.2.1-.3.2-.5.4-.1.2-.2.3-.1.3.5.1.8.2 1 .5l.1.1c.1.1.1.3.2.5.1.3.1.5.1.9v1.5c0 .4-.1.7-.1 1 0 .2-.1.4-.2.6-.1.1-.1.2-.1.3 0 0 0 .1-.1.1s-.2.1-.3.1c-.1 0-.2-.1-.4-.2s-.3-.3-.5-.5-.4-.5-.6-.8c-.2-.3-.4-.8-.7-1.2l-.2-.3c-.1-.2-.3-.5-.5-1l-.6-1.2c-.1-.2-.2-.3-.3-.4h-.1s-.1-.1-.2-.1-.2-.1-.3-.1h-3.3c-.3 0-.6.1-.7.2v.3c0 .1 0 .2.1.3.5 1.1 1 2.2 1.6 3.2.6 1 1.1 1.9 1.5 2.5.4.6.8 1.2 1.3 1.8.4.6.7.9.9 1.1.1.2.2.3.3.4l.3.3c.2.2.5.4.8.7s.8.5 1.2.8c.5.3 1 .5 1.6.6.6.2 1.2.2 1.7.2h1.4c.3 0 .5-.1.6-.3v-.1s.1-.1.1-.2V26c0-.3 0-.6.1-.9.1-.3.1-.5.2-.6.1-.1.2-.3.3-.3l.2-.2h.1c.2-.1.4 0 .7.2.3.2.5.4.7.7.2.3.5.6.8.9l.8.8.2.1.6.3c.3.1.5.1.7.1h3.1c.3 0 .5 0 .7-.1.2-.1.3-.2.3-.3v-.4c.1-.4.1-.5.1-.6zm20 27.3H65c-3.3 0-6.1 2.7-6.1 6.1V69c0 3.3 2.7 6.1 6.1 6.1h9.9c3.3 0 6.1-2.7 6.1-6.1v-9.9c0-3.4-2.7-6.1-6.1-6.1zM79 68.9c0 2.3-1.8 4.1-4.1 4.1H65c-2.3 0-4.1-1.8-4.1-4.1V59c0-2.3 1.8-4.1 4.1-4.1h9.9c2.3 0 4.1 1.8 4.1 4.1v9.9z"/>
    <path class="st0"
          d="M70 58.3c-3.1 0-5.7 2.5-5.7 5.7 0 3.1 2.5 5.7 5.7 5.7 3.1 0 5.7-2.5 5.7-5.7 0-3.1-2.6-5.7-5.7-5.7zm0 9.4c-2 0-3.7-1.7-3.7-3.7s1.7-3.7 3.7-3.7 3.7 1.7 3.7 3.7-1.7 3.7-3.7 3.7zm5.9-11c-.4 0-.7.2-1 .4-.3.3-.4.6-.4 1s.2.7.4 1c.3.3.6.4 1 .4s.7-.2 1-.4c.3-.3.4-.6.4-1s-.2-.7-.4-1c-.2-.3-.6-.4-1-.4z"/>
    <path class="st0"
          d="M70 46c9.9 0 18 8.1 18 18s-8.1 18-18 18-18-8.1-18-18 8.1-18 18-18m0-2c-11 0-20 9-20 20s9 20 20 20 20-9 20-20-9-20-20-20zM45 2c9.9 0 18 8.1 18 18s-8.1 18-18 18-18-8.1-18-18S35.1 2 45 2m0-2C34 0 25 9 25 20s9 20 20 20 20-9 20-20S56 0 45 0zM24.5 53h-2.9c-3.2 0-5.3 2.1-5.3 5.4v2.5h-2.9c-.2 0-.5.2-.5.4V65c0 .2.2.4.5.4h2.9v9.1c0 .2.2.4.5.4h3.8c.3 0 .5-.2.5-.4v-9.1h3.4c.2 0 .5-.2.5-.4v-3.6c0-.1 0-.2-.1-.3-.1-.1-.2-.1-.3-.1H21v-2.1c0-1 .2-1.5 1.6-1.5h1.9c.2 0 .5-.2.5-.4v-3.4c0-.4-.2-.6-.5-.6z"/>
    <path class="st0"
          d="M20 46c9.9 0 18 8.1 18 18s-8.1 18-18 18S2 73.9 2 64s8.1-18 18-18m0-2C9 44 0 53 0 64s9 20 20 20 20-9 20-20-9-20-20-20z"/>
</svg>