<svg xmlns="http://www.w3.org/2000/svg" width="88.75" height="120.44">
    <path d="M63.73 66.46c-.09.01-12.65 3.38-17.75-9.74a25.223 25.223 0 0 0 4.38-7 35.364 35.364 0 0 0 2.36-17.62 2.566 2.566 0 0 0 .42-1.02 27.636 27.636 0 0 0-.39-10.86C49.46 6.35 36.32-2.46 23.47.59a22.274 22.274 0 0 0-9.17 4.6 17.793 17.793 0 0 0-3.28 1.43C6.1 9.4 2.73 14.33 1.53 20.52a28.091 28.091 0 0 0 2.9 18.3 30.573 30.573 0 0 0 2.16 3.51 2.511 2.511 0 0 0 .78.71c3.47 9.18 9.83 15.95 16.99 18.78 1.33 14.04-11.41 16.66-11.49 16.69A17.477 17.477 0 0 0 .48 99.37l4.53 19.1a2.533 2.533 0 0 0 3.06 1.89l21.73-5.15 35.26-8.35 21.74-5.15a2.54 2.54 0 0 0 1.89-3.06l-4.53-19.1a17.466 17.466 0 0 0-20.43-13.09zM13.52 11.05a12.958 12.958 0 0 1 2.73-1.13 2.428 2.428 0 0 0 .97-.53 17.293 17.293 0 0 1 7.42-3.85c10.13-2.4 20.52 4.71 23.15 15.85.08.34.15.67.22 1.01a11.073 11.073 0 0 0-8.48-1.41l-16.87 3.99a4.743 4.743 0 0 1-4.96-1.87 3.113 3.113 0 0 0-5.66 1.74A23.616 23.616 0 0 1 8.81 36.2c-4.92-9.65-2.83-20.89 4.71-25.15zm7.99 43.33a29.938 29.938 0 0 1-9.57-13.64 28.85 28.85 0 0 0 4.81-11.8 7.827 7.827 0 0 0 .92.45 9.753 9.753 0 0 0 6.17.55l16.87-4a6.029 6.029 0 0 1 6.18 2.21.109.109 0 0 1 .01.05c3.31 13.98-2.1 27.27-12.07 29.63-4.33 1.03-9.07-.2-13.32-3.45zm8.08 8.77a18.309 18.309 0 0 0 6.42-.37 18.57 18.57 0 0 0 5.89-2.53 19.965 19.965 0 0 0 9.97 9.97l-8.62 21.59a.4.4 0 0 1-.3.26.418.418 0 0 1-.4-.09L25.17 76.54a19.944 19.944 0 0 0 4.42-13.39zm53.56 34.2l-19.26 4.56-35.26 8.35-19.26 4.57L5.43 98.2a12.4 12.4 0 0 1 9.19-14.9 21.833 21.833 0 0 0 6.86-3.23l17.7 15.71a5.521 5.521 0 0 0 4.94 1.25 5.545 5.545 0 0 0 3.86-3.34l8.76-21.97a21.02 21.02 0 0 0 7.58-.19 12.386 12.386 0 0 1 14.89 9.19l3.94 16.63z"
          fill="#fad846" fill-rule="evenodd"/>
</svg>