<svg width="60" height="60" xmlns="http://www.w3.org/2000/svg">
    <g fill="#FFF" fill-rule="evenodd">
        <path d="M60 29.96C60 46.526 46.526 60 29.96 60 13.395 60 0 46.526 0 29.96 0 13.395 13.395 0 29.96 0 46.526 0 60 13.395 60 29.96zm-2 0C58 14.516 45.438 2 29.96 2 14.5 2 2 14.5 2 29.96 2 45.438 14.516 58 29.96 58 45.421 58 58 45.421 58 29.96z"/>
        <path d="M47.723 42.464C46.54 44.884 44.988 45.942 42.4 47c-4.14-1.36-7.392-4.385-8.353-8.316.148-.605.74-1.285 2.07-2.193 1.108-.68 4.435-2.646 5.026-3.855-.443-.756-1.183-1.21-1.922-1.588-2.66.151-6.8 2.193-8.057 1.739-.37-1.058-.074-2.949.444-4.31.295-.226 3.03-1.965 3.474-2.04-.074.377-.592.907-.74 1.36 0 .076 1.183-1.285 1.922-1.512.148.227.37.454.814.68.517.152 1.552.227 2.143-.075.444-.53.592-.832.961-1.89.074 0 3.4 2.57 3.844 2.797.222.151 1.996 1.437 2.217 1.815.148.378.222 1.134.37 2.343.148.605 1.922 1.588 2.144 2.495-.961.53-1.553.68-2.661.907-.961.303-1.553.53-2.662.756-.739.152-2.217.53-2.808.832-.592.302-1.627 1.36-2.292 1.588-1.626-.227-1.922-1.21-2.143-1.437-.222.076-.444.303-.518.378.444 1.059 1.7 1.663 2.661 1.663 1.257-.226 1.848-1.134 2.661-1.663a21.469 21.469 0 0 1 3.326-.907c.592-.151 1.257-.454 1.848-.605 1.7-.227 1.996-.605 2.661-.831.592 2.04-.517 5.745-1.108 7.333zM24.899 45.52c-.87-.901-2.682-3.83-2.899-5.108 0-3.68.58-5.183 2.174-8.413-.87 2.93-1.74 5.258-1.45 8.188.58 1.577 1.305 3.155 2.754 4.732C27 46.122 29.101 46.723 32 48c-2.971-.6-5.145-1.202-7.101-2.479zm-8.372-25.64c-.29-.465-.8-1.241-1.527-1.94.51-.465.436-1.318 1.31-1.939.726.388 2.254 2.638 2.763 3.336.654.698 1.309 1.552 1.963 2.25.146.233 1.455 1.474 1.964 2.095-.218.233-.8.776-1.455 1.319-2.036-.698-4.509-4.345-5.018-5.12zM28.122 10c1.756.75 5.191 3.675 5.878 5.4-1.374.15-1.985.3-3.053.6-1.985-2.55-4.352-3.375-6.947-5.1.534-.825 3.13-.9 4.122-.9zm9.102 7c.211.208.705.762.776 1.177-.212.693-5.224 2.009-6 1.801.282-.762.847-1.385 2.612-2.216.423-.208 1.553-.762 2.612-.762zm4.372 4.026c.517.754.443 1.658.295 2.186-.886.226-.886.226-1.845.15-1.107-.15-3.765.679-4.281.754-1.55.603-2.88.98-3.765 1.884.148-1.583 7.603-5.35 9.596-4.974zm7.966 13.383c-.529-.966-2.267-2.155-2.342-2.526-.076-.446-.227-1.635-.454-2.304-.302-.594-2.795-2.08-3.626-2.674-.302-.223-1.133-.817-1.284-1.04.604-.297.982-.297 1.813-1.189-.076-1.486-.831-3.269-1.058-3.566-.453-.297-.604-.223-1.058-.372-.453-.297-1.284-2.005-1.737-2.674-.68-.966-1.21-1.486-3.098-1.783-1.058 0-1.058-.149-1.587-.743-1.057-.966-1.888-2.526-3.097-3.938-.605-.668-1.964-1.56-2.871-1.931C28.407 9.37 26.14 9 25.083 9c-.982 0-1.586 0-2.569.149-3.022.445-5.213 1.337-7.328 3.566-1.285 1.337-1.889 3.566-2.947 5.126-.377.594-.755 1.114-1.133 1.709-.453.594-.831 1.04-1.284 1.56-.605.669-1.21 1.263-1.738 1.932-.604.743-1.209 1.263-1.889 1.857-.075.074-.15.149-.15.223-.68.594-1.36 1.114-2.04 1.709-.983.817-1.21 1.857-1.89 2.897a31.14 31.14 0 0 0-1.133 1.635c-.15.371.227.266 0 .637-.226.371.018 1.146.018 1.517v.372C3.684 46.059 13.448 59 28.18 59c5.063 0 9.822-1.263 13.978-3.566a4.593 4.593 0 0 0-.907-.149 9.527 9.527 0 0 0-1.209-.297c-1.36-.371-7.857-2.674-8.084-3.343.53-.074 1.89-.892 2.342-.892 2.116.446 5.138 2.824 8.236 2.452 1.964-1.189 2.19-2.675 3.626-5.498.604-1.263 1.964-2.971 2.191-3.863.604-1.114 2.493-4.458 1.209-9.435zM45.615 31c.231-.309.385-.309.385-1.544-.462-.54-2.077-.54-2.923-.309 0 .232-.077.54-.077.85.692.694 1.846 1.003 2.615 1.003z"
              fill-rule="nonzero"/>
    </g>
</svg>