<?xml version="1.0" encoding="UTF-8"?>
<svg width="50px" height="57px" viewBox="0 0 50 57" version="1.1" xmlns="http://www.w3.org/2000/svg"
     xmlns:xlink="http://www.w3.org/1999/xlink">
    <!-- Generator: Sketch 49.3 (51167) - http://www.bohemiancoding.com/sketch -->
    <title>3</title>
    <desc>Created with Sketch.</desc>
    <defs></defs>
    <g id="Symbols" stroke="none" stroke-width="1" fill="none" fill-rule="evenodd">
        <g id="1" transform="translate(-300.000000, -68.000000)" fill="#55B390">
            <path d="M338.031,115.5672 C338.908,116.0362 339.555,116.8292 339.853,117.7992 C340.15,118.7702 340.062,119.8012 339.605,120.7042 C339.148,121.6052 338.377,122.2712 337.434,122.5772 C336.49,122.8832 335.488,122.7922 334.61,122.3232 L327.364,118.4422 L328.491,117.8392 L332.343,117.8392 C332.946,117.8392 333.434,117.3372 333.434,116.7162 C333.434,116.0972 332.946,115.5942 332.343,115.5942 L328.223,115.5942 C328.048,115.5942 327.875,115.6372 327.719,115.7212 L325.001,117.1782 L322.282,115.7212 C322.126,115.6372 321.953,115.5942 321.778,115.5942 L317.659,115.5942 C317.056,115.5942 316.568,116.0972 316.568,116.7162 C316.568,117.3372 317.056,117.8392 317.659,117.8392 L321.511,117.8392 L322.638,118.4422 L315.392,122.3232 C313.581,123.2932 311.34,122.5662 310.397,120.7042 C309.454,118.8412 310.16,116.5362 311.971,115.5672 L319.488,111.5412 C320.813,113.1552 322.792,114.1812 325.001,114.1812 C327.21,114.1812 329.189,113.1552 330.513,111.5412 L338.031,115.5672 Z M325,76.8382 C326.106,78.6892 327.961,80.0202 330.127,80.3792 C329.66,82.8502 327.539,84.7222 325,84.7222 C322.464,84.7222 320.343,82.8502 319.874,80.3792 C322.04,80.0192 323.894,78.6882 325,76.8382 Z M328.675,88.5022 L328.204,88.5022 C328.005,88.2302 327.69,88.0542 327.333,88.0542 C326.976,88.0542 326.66,88.2302 326.461,88.5022 L323.541,88.5022 C323.342,88.2302 323.026,88.0542 322.669,88.0542 C322.312,88.0542 321.997,88.2302 321.798,88.5022 L321.327,88.5022 C319.576,88.5022 318.118,89.8182 317.836,91.5382 C317.124,92.0542 316.373,92.4792 315.596,92.8102 C315.406,92.3762 315.27,92.0482 315.27,91.3112 C315.27,90.5562 315.412,90.2302 315.61,89.7792 C315.847,89.2372 316.143,88.5632 316.143,87.3262 C316.143,86.0882 315.847,85.4142 315.61,84.8722 C315.413,84.4212 315.27,84.0962 315.27,83.3402 C315.27,82.5852 315.413,82.2592 315.61,81.8092 C315.847,81.2672 316.143,80.5932 316.143,79.3552 C316.143,74.7122 319.538,70.8722 323.908,70.3162 L323.908,72.8632 C323.908,75.8242 321.566,78.2322 318.686,78.2322 C318.397,78.2322 318.119,78.3512 317.915,78.5622 C317.71,78.7722 317.595,79.0582 317.595,79.3562 C317.598,83.5522 320.92,86.9672 325,86.9672 C329.082,86.9672 332.404,83.5522 332.405,79.3552 C332.405,79.0572 332.289,78.7722 332.085,78.5612 C331.88,78.3512 331.603,78.2322 331.313,78.2322 C328.434,78.2322 326.091,75.8242 326.091,72.8632 L326.091,70.3162 C330.461,70.8722 333.857,74.7122 333.857,79.3552 C333.857,80.5932 334.152,81.2672 334.389,81.8092 C334.587,82.2592 334.73,82.5852 334.73,83.3402 C334.73,84.0962 334.587,84.4212 334.389,84.8722 C334.152,85.4142 333.857,86.0882 333.857,87.3262 C333.857,88.5632 334.152,89.2372 334.389,89.7792 C334.587,90.2302 334.73,90.5562 334.73,91.3112 C334.73,92.0482 334.594,92.3762 334.404,92.8092 C333.628,92.4782 332.878,92.0542 332.166,91.5382 C331.884,89.8182 330.427,88.5022 328.675,88.5022 Z M323.76,90.7472 L326.242,90.7472 L326.242,97.3672 C326.242,98.0702 325.685,98.6432 325.001,98.6432 C324.317,98.6432 323.76,98.0702 323.76,97.3672 L323.76,90.7472 Z M319.968,106.7612 L319.968,92.1452 C319.968,91.3742 320.578,90.7472 321.327,90.7472 L321.578,90.7472 L321.578,97.3672 C321.578,99.3082 323.114,100.8872 325.001,100.8872 C326.889,100.8872 328.424,99.3082 328.424,97.3672 L328.424,90.7472 L328.675,90.7472 C329.425,90.7472 330.034,91.3742 330.034,92.1452 L330.034,106.7612 C330.034,109.6152 327.776,111.9372 325.001,111.9372 C322.226,111.9372 319.968,109.6152 319.968,106.7612 Z M349.576,88.8642 C349.098,88.4852 348.413,88.5782 348.046,89.0682 C345.253,92.8052 340.716,94.3662 336.503,93.4742 C336.709,92.9772 336.912,92.3382 336.912,91.3112 C336.912,90.0742 336.617,89.3992 336.38,88.8572 C336.182,88.4072 336.039,88.0812 336.039,87.3262 C336.039,86.5712 336.182,86.2452 336.38,85.7942 C336.617,85.2522 336.912,84.5782 336.912,83.3402 C336.912,82.1032 336.617,81.4282 336.38,80.8872 C336.182,80.4362 336.039,80.1102 336.039,79.3542 C336.039,73.0942 331.087,68.0002 325,68.0002 C318.913,68.0002 313.961,73.0942 313.961,79.3552 C313.961,80.1102 313.818,80.4362 313.62,80.8872 C313.383,81.4282 313.088,82.1032 313.088,83.3402 C313.088,84.5782 313.383,85.2532 313.62,85.7942 C313.818,86.2452 313.961,86.5712 313.961,87.3262 C313.961,88.0812 313.818,88.4072 313.62,88.8572 C313.383,89.3992 313.088,90.0742 313.088,91.3112 C313.088,92.3382 313.292,92.9772 313.497,93.4752 C309.285,94.3652 304.748,92.8042 301.956,89.0692 C301.589,88.5782 300.904,88.4852 300.426,88.8642 C299.948,89.2412 299.859,89.9452 300.226,90.4362 C302.935,94.0612 307.027,95.9632 311.163,95.9632 C312.094,95.9632 313.027,95.8652 313.947,95.6712 C313.906,96.1752 313.781,96.4592 313.62,96.8272 C313.383,97.3692 313.087,98.0432 313.087,99.2802 C313.087,99.9002 313.576,100.4022 314.178,100.4022 C314.781,100.4022 315.27,99.9012 315.27,99.2802 C315.27,98.5252 315.412,98.1992 315.61,97.7492 C315.847,97.2072 316.143,96.5322 316.143,95.2962 C316.143,95.1952 316.14,95.1002 316.136,95.0072 C316.698,94.7822 317.248,94.5172 317.785,94.2132 L317.785,99.2802 L317.785,106.7612 C317.785,107.7752 317.985,108.7422 318.344,109.6232 L310.963,113.5762 C308.085,115.1182 306.962,118.7792 308.461,121.7402 C309.51,123.8102 311.565,124.9972 313.691,124.9972 C314.606,124.9972 315.534,124.7762 316.4,124.3132 L325.001,119.7072 L333.602,124.3132 C334.454,124.7692 335.38,125.0012 336.314,125.0012 C336.908,125.0012 337.507,124.9062 338.09,124.7172 C339.589,124.2312 340.815,123.1742 341.541,121.7402 C342.267,120.3062 342.406,118.6672 341.934,117.1242 C341.462,115.5832 340.433,114.3222 339.039,113.5762 L331.657,109.6232 C332.017,108.7422 332.217,107.7752 332.217,106.7612 L332.217,99.2792 L332.217,94.2132 C332.753,94.5172 333.302,94.7822 333.863,95.0062 C333.86,95.0982 333.857,95.1942 333.857,95.2962 C333.857,96.5322 334.152,97.2072 334.39,97.7482 C334.587,98.1992 334.73,98.5242 334.73,99.2792 C334.73,99.9002 335.218,100.4012 335.821,100.4012 C336.424,100.4012 336.912,99.9002 336.912,99.2792 C336.912,98.0422 336.617,97.3692 336.38,96.8272 C336.218,96.4592 336.094,96.1742 336.053,95.6712 C336.974,95.8652 337.907,95.9632 338.839,95.9632 C342.974,95.9632 347.067,94.0612 349.776,90.4362 C350.143,89.9452 350.054,89.2412 349.576,88.8642 Z"
                  id="3"></path>
        </g>
    </g>
</svg>