<svg fill="#e52d27" xmlns="http://www.w3.org/2000/svg" width="19" viewBox="0 0 19 13">

    <path
          d="M537.251,16.114C536.565,15.321,535.3,15,532.88,15H524.1c-2.473,0-3.761.345-4.444,1.188-0.666.823-.666,2.036-0.666,3.714v3.2c0,3.25.79,4.9,5.11,4.9h8.778c2.1,0,3.259-.285,4.011-0.985,0.771-.716,1.1-1.889,1.1-3.916V19.9C537.991,18.13,537.94,16.91,537.251,16.114Zm-6.062,5.826L527.2,23.965a0.626,0.626,0,0,1-.6-0.018,0.593,0.593,0,0,1-.295-0.51V19.4a0.591,0.591,0,0,1,.294-0.508,0.629,0.629,0,0,1,.6-0.02l3.986,2.013A0.588,0.588,0,0,1,531.189,21.94Z"
          transform="translate(-519 -15)"/>
</svg>
