<svg fill="#00B78D" xmlns="http://www.w3.org/2000/svg" width="65" viewBox="0 0 65 48">

    <path id="icon_example_1" class="cls-1"
          d="M899.874,4093.96H885.388v-10.84a1.122,1.122,0,0,0-1.125-1.12H837.126a1.122,1.122,0,0,0-1.126,1.12v33.8a1.122,1.122,0,0,0,1.126,1.12h14.486v10.84a1.122,1.122,0,0,0,1.125,1.12h47.137a1.122,1.122,0,0,0,1.126-1.12v-33.8A1.122,1.122,0,0,0,899.874,4093.96Zm-1.126,6.63H853.863v-4.39h44.885v4.39Zm-15.611-16.35v4.38H838.252v-4.38h44.885Zm-44.885,31.55v-24.92h44.885v3.09h-30.4a1.122,1.122,0,0,0-1.125,1.12v20.71h-13.36Zm15.611-12.96h13.6v24.93h-13.6v-24.93h0Zm15.856,24.93v-24.93h29.029v24.93H869.719Zm-13.525-28.24a1.127,1.127,0,1,0-.8-0.33A1.134,1.134,0,0,0,856.194,4099.52Zm2.787,0a1.125,1.125,0,1,0-.795-0.33A1.134,1.134,0,0,0,858.981,4099.52Zm2.789,0a1.123,1.123,0,1,0-.8-0.33A1.133,1.133,0,0,0,861.77,4099.52Zm-4.708,7.86h7.206a1.125,1.125,0,1,0,0-2.25h-7.206A1.125,1.125,0,1,0,857.062,4107.38Zm7.206,1.79h-7.206a1.12,1.12,0,1,0,0,2.24h7.206A1.12,1.12,0,1,0,864.268,4109.17Zm0,4.04h-7.206a1.12,1.12,0,1,0,0,2.24h7.206A1.12,1.12,0,1,0,864.268,4113.21Zm25.324-8.08H872.675a1.125,1.125,0,1,0,0,2.25h16.917A1.125,1.125,0,1,0,889.592,4105.13Zm0,4.04H872.675a1.12,1.12,0,1,0,0,2.24h16.917A1.12,1.12,0,1,0,889.592,4109.17Zm0,4.04H872.675a1.12,1.12,0,1,0,0,2.24h16.917A1.12,1.12,0,1,0,889.592,4113.21Zm-49.01-25.66a1.17,1.17,0,0,0,.8-0.32,1.125,1.125,0,0,0-1.593-1.59,1.123,1.123,0,0,0,0,1.59A1.168,1.168,0,0,0,840.582,4087.55Zm2.787,0a1.169,1.169,0,0,0,.8-0.32,1.125,1.125,0,1,0-1.593,0A1.17,1.17,0,0,0,843.369,4087.55Zm2.789,0a1.168,1.168,0,0,0,.8-0.32,1.126,1.126,0,1,0-1.593,0A1.169,1.169,0,0,0,846.158,4087.55Zm2.5,5.62H841.45a1.12,1.12,0,1,0,0,2.24h7.206A1.12,1.12,0,1,0,848.656,4093.17Zm0,4.04H841.45a1.12,1.12,0,1,0,0,2.24h7.206A1.12,1.12,0,1,0,848.656,4097.21Zm0,4.04H841.45a1.12,1.12,0,1,0,0,2.24h7.206A1.12,1.12,0,1,0,848.656,4101.25Z"
          transform="translate(-836 -4082)"/>
</svg>
