<svg xmlns="http://www.w3.org/2000/svg" width="97" height="71" viewBox="0 0 97 71">
    <defs>
        <style>
            .cls-1 {
            fill: #fff;
            fill-rule: evenodd;
            }
        </style>
    </defs>
    <path id="icon_erp_func_4" class="cls-1"
          d="M681.383,2032.14h-4.85v-2.42a5.634,5.634,0,0,0-8.083-5.09v-2.18a6.467,6.467,0,0,0-12.933,0v9.69H649.05v-1.62a4.824,4.824,0,0,0-4.808-4.84,4.884,4.884,0,0,0-3.275,1.26,4.779,4.779,0,0,0-6.467,0,4.779,4.779,0,0,0-6.467,0,4.827,4.827,0,0,0-8.083,3.58v1.62h-6.467v-9.69a6.467,6.467,0,0,0-12.933,0v2.18a5.634,5.634,0,0,0-8.083,5.09v2.42h-4.85a1.613,1.613,0,0,0-1.617,1.61v9.68a1.622,1.622,0,0,0,1.617,1.62h4.85v2.42a5.652,5.652,0,0,0,5.658,5.64,5.51,5.51,0,0,0,2.425-.56v2.18a6.467,6.467,0,0,0,12.933,0v-9.68h3.234v5.39a8,8,0,0,0,2.368,5.7l4.1,4.1V2087h3.234v-27.43a1.6,1.6,0,0,0-.474-1.14l-4.572-4.57a4.864,4.864,0,0,1-1.421-3.42V2040.2h9.469a1.982,1.982,0,0,1,1.565.76c0.011,0.02.024,0.03,0.035,0.05a1.5,1.5,0,0,1,.162.35,1.7,1.7,0,0,1,.061.31,1.254,1.254,0,0,1,0,.3,1.233,1.233,0,0,1-.021.17,1.623,1.623,0,0,1-.186.48,1.588,1.588,0,0,1-1.385.81H624.8a1.615,1.615,0,0,0-1.617,1.62v3.22a1.609,1.609,0,0,0,1.106,1.53l3.557,1.19c2.887,0.96,5.037,5.32,5.037,8.58h3.234c0-4.44-2.768-10.15-7.241-11.64l-2.459-.82v-0.45h3.233a4.83,4.83,0,0,0,3.557-1.61h14.226v5.91a4.874,4.874,0,0,1-.97,2.91l-3.556,4.73a1.616,1.616,0,0,0-.324.97V2087h3.234v-26.89l3.233-4.31a8.081,8.081,0,0,0,1.617-4.84v-5.91h4.85v9.68a6.467,6.467,0,0,0,12.933,0v-2.18a5.51,5.51,0,0,0,2.425.56,5.652,5.652,0,0,0,5.658-5.64v-2.42h4.85a1.622,1.622,0,0,0,1.617-1.62v-9.68A1.613,1.613,0,0,0,681.383,2032.14Zm-88.916,9.68h-3.234v-6.46h3.234v6.46Zm8.083,5.65a2.425,2.425,0,0,1-4.85,0v-17.75a2.425,2.425,0,0,1,4.85,0v17.75Zm9.7,7.26a3.234,3.234,0,0,1-6.467,0v-32.28a3.234,3.234,0,0,1,6.467,0v32.28Zm8.083-17.75a1.613,1.613,0,0,0-1.616,1.61v3.23h-3.234v-6.46h6.467a4.842,4.842,0,0,0,.092.91c0.018,0.1.049,0.18,0.071,0.28,0.037,0.14.065,0.29,0.113,0.43h-1.893Zm8.084-1.62a1.617,1.617,0,1,1-3.234,0v-4.84a1.617,1.617,0,0,1,3.234,0v4.84Zm6.466,0a1.617,1.617,0,1,1-3.233,0v-4.84a1.617,1.617,0,0,1,3.233,0v4.84Zm9.7-4.84a1.617,1.617,0,0,1,3.234,0v4.84a1.617,1.617,0,1,1-3.234,0v-4.84Zm-6.466,0a1.617,1.617,0,0,1,3.233,0v4.84a1.617,1.617,0,1,1-3.233,0v-4.84Zm19.4,11.3H634.5v-0.05a4.714,4.714,0,0,0-.1-0.95c-0.01-.05-0.031-0.09-0.041-0.13-0.029-.12-0.071-0.23-0.108-0.34a4.865,4.865,0,0,0-.247-0.61c-0.047-.09-0.07-0.2-0.123-0.3a0.172,0.172,0,0,0,.053-0.04,2.24,2.24,0,0,0,.21-0.16c0.122-.09.249-0.17,0.362-0.27,0.094,0.08.2,0.14,0.3,0.22a3.834,3.834,0,0,0,.307.23c0.153,0.09.31,0.18,0.472,0.26,0.11,0.05.213,0.11,0.323,0.16a5.711,5.711,0,0,0,.579.18,3.12,3.12,0,0,0,.3.08,4.6,4.6,0,0,0,1.885,0,3.064,3.064,0,0,0,.3-0.08,5.791,5.791,0,0,0,.579-0.18c0.114-.05.218-0.11,0.323-0.16,0.162-.08.32-0.17,0.474-0.26,0.106-.07.2-0.15,0.3-0.23s0.209-.14.3-0.22c0.094,0.08.2,0.14,0.3,0.22a3.834,3.834,0,0,0,.307.23c0.153,0.09.31,0.18,0.472,0.26,0.11,0.05.213,0.11,0.323,0.16a5.711,5.711,0,0,0,.579.18,3.12,3.12,0,0,0,.3.08,4.826,4.826,0,0,0,5.7-3.76,4.934,4.934,0,0,0,.1-0.98h6.467v6.46h0Zm9.7,12.91a3.234,3.234,0,0,1-6.467,0v-32.28a3.234,3.234,0,0,1,6.467,0v32.28Zm8.083-7.26a2.425,2.425,0,0,1-4.85,0v-17.75a2.425,2.425,0,0,1,4.85,0v17.75Zm6.467-5.65h-3.234v-6.46h3.234v6.46Z"
          transform="translate(-586 -2016)"/>
</svg>
