<svg xmlns="http://www.w3.org/2000/svg" width="76" height="76" viewBox="0 0 76 76">
    <defs>
        <style>
            .cls-1 {
            fill: #fff;
            fill-rule: evenodd;
            }
        </style>
    </defs>
    <path id="icon_erp_func_6" class="cls-1"
          d="M1287.01,2077.47a1.473,1.473,0,0,0-2.1,0,1.508,1.508,0,0,0-.43,1.05,1.478,1.478,0,0,0,2.53,1.04,1.452,1.452,0,0,0,.44-1.04A1.475,1.475,0,0,0,1287.01,2077.47Zm29.06-24.92-4.95-1.18v-1.97a9.8,9.8,0,0,0,4.57-8.28v-5.53a9.79,9.79,0,0,0-17.12-6.5,13.1,13.1,0,0,0-12.55-9.44h0a13.081,13.081,0,0,0-12.56,9.47,9.793,9.793,0,0,0-17.15,6.47v5.53a9.8,9.8,0,0,0,4.57,8.28v1.97l-4.95,1.18a10.3,10.3,0,0,0-7.93,10.05v9.98a1.477,1.477,0,0,0,1.48,1.48h11.87v4.46a1.485,1.485,0,0,0,1.49,1.48h16.28a1.485,1.485,0,1,0,0-2.97h-6.62v-6.53a1.485,1.485,0,1,0-2.97,0v6.53h-5.21v-6.7a10.805,10.805,0,0,1,8.32-10.54l7.3-1.75,4.7,10.69a1.475,1.475,0,0,0,1.35.89h0a1.479,1.479,0,0,0,1.36-.89l4.7-10.67,7.27,1.74a10.8,10.8,0,0,1,8.33,10.54V2072a1.4,1.4,0,0,0-.12.58,1.435,1.435,0,0,0,.12.58v3.87h-5.18v-6.53a1.485,1.485,0,1,0-2.97,0v6.53h-7.27a1.485,1.485,0,0,0,0,2.97h16.9a1.485,1.485,0,0,0,1.49-1.48v-4.46h11.9a1.477,1.477,0,0,0,1.48-1.48v-9.98A10.3,10.3,0,0,0,1316.07,2052.55Zm-10.17-23.79a6.839,6.839,0,0,1,6.83,6.83v0.51h-4.25a18.316,18.316,0,0,1-9.14-2.44A6.852,6.852,0,0,1,1305.9,2028.76Zm-6.83,12.12c0-.16.01-4,0.01-4a21.233,21.233,0,0,0,9.4,2.19h4.25v2.05a6.83,6.83,0,1,1-13.66,0v-0.24h0Zm-23.15-8.17a10.1,10.1,0,0,1,20.19,0v0.2l-5.51-3.24a1.479,1.479,0,0,0-1.89.33,11.223,11.223,0,0,1-8.61,4.02h-4.18v-1.31Zm-16.65,3.24v-0.36a6.835,6.835,0,0,1,13.39-1.93,18.316,18.316,0,0,1-9.14,2.44h-4.25v-0.15Zm0,5.17v-2.05h4.25a21.275,21.275,0,0,0,9.41-2.19v4.24A6.83,6.83,0,0,1,1259.27,2041.12Zm2.08,29.21v0.76h-4.44v-6.59a1.485,1.485,0,1,0-2.97,0v6.59h-2.97v-8.49a7.33,7.33,0,0,1,5.65-7.16l4.71-1.13,3.07,7.36A13.793,13.793,0,0,0,1261.35,2070.33Zm4.75-12.28-2.25-5.4v-2a9.89,9.89,0,0,0,2.25.26,9.738,9.738,0,0,0,2.24-.26v1.88a0.66,0.66,0,0,0,.01.14Zm5.85-1.15a14.571,14.571,0,0,0-2.51.87l1.44-3.46,4.71,1.12a7.738,7.738,0,0,1,1.06.35Zm7.36-3.09a9.975,9.975,0,0,0-3.03-1.26l-4.97-1.19v-1.95a9.854,9.854,0,0,0,3.07-3.06,13.2,13.2,0,0,0,4.93,5.28v2.18Zm10.39,2.2-3.71,8.43-3.71-8.44v-3.06a13.21,13.21,0,0,0,3.74.54,12.842,12.842,0,0,0,3.68-.53v3.06h0Zm-3.68-5.5a10.108,10.108,0,0,1-10.1-10.09v-3.43h4.18a14.156,14.156,0,0,0,10.03-4.15l5.97,3.51v4.42A10.1,10.1,0,0,1,1286.02,2050.51Zm6.65,1.14h0a13.136,13.136,0,0,0,4.97-5.27,9.8,9.8,0,0,0,3.05,3.03v1.95l-4.97,1.19a10.371,10.371,0,0,0-3.05,1.27v-2.17h0Zm7.34,5.26-4.69-1.12a6.957,6.957,0,0,1,1.09-.36l4.7-1.12,1.45,3.48A13.71,13.71,0,0,0,1300.01,2056.91Zm3.64-4.22c0-.05.01-0.11,0.01-0.16v-1.88a9.738,9.738,0,0,0,2.24.26,9.89,9.89,0,0,0,2.25-.26v1.97l-2.27,5.43Zm17.38,18.4h-2.97v-6.59a1.485,1.485,0,1,0-2.97,0v6.59h-4.47v-0.75a13.735,13.735,0,0,0-3.04-8.65l3.08-7.38,4.72,1.13a7.33,7.33,0,0,1,5.65,7.16v8.49Zm-38.96-32.33a1.5,1.5,0,0,0-2.1,0,1.5,1.5,0,0,0,0,2.1A1.485,1.485,0,1,0,1282.07,2038.76Zm9.93,0a1.483,1.483,0,0,0-1.05-.43,1.466,1.466,0,0,0-1.05.43,1.473,1.473,0,0,0,0,2.1,1.466,1.466,0,0,0,1.05.43,1.483,1.483,0,0,0,1.05-.43A1.5,1.5,0,0,0,1292,2038.76Zm-3.14,5a1.485,1.485,0,0,0-2.1,0,1.123,1.123,0,0,1-1.59,0,1.485,1.485,0,1,0-2.1,2.1,4.116,4.116,0,0,0,5.79,0A1.485,1.485,0,0,0,1288.86,2043.76Zm20.52-31.74h-1.02a1.48,1.48,0,1,0,0,2.96h1.02A1.48,1.48,0,0,0,1309.38,2012.02Zm7.2,0h-1.02a1.48,1.48,0,0,0,0,2.96h1.02A1.48,1.48,0,0,0,1316.58,2012.02Zm-4.11,3.09a1.485,1.485,0,0,0-1.49,1.48v1.02a1.485,1.485,0,0,0,2.97,0v-1.02A1.477,1.477,0,0,0,1312.47,2015.11Zm0-7.2a1.485,1.485,0,0,0-1.49,1.48v1.02a1.485,1.485,0,0,0,2.97,0v-1.02A1.477,1.477,0,0,0,1312.47,2007.91Zm-56.11,4.11h-1.02a1.48,1.48,0,1,0,0,2.96h1.02A1.48,1.48,0,0,0,1256.36,2012.02Zm7.2,0h-1.02a1.48,1.48,0,0,0,0,2.96h1.02A1.48,1.48,0,0,0,1263.56,2012.02Zm-4.11,3.09a1.477,1.477,0,0,0-1.48,1.48v1.02a1.48,1.48,0,0,0,2.96,0v-1.02A1.477,1.477,0,0,0,1259.45,2015.11Zm0-7.2a1.477,1.477,0,0,0-1.48,1.48v1.02a1.48,1.48,0,0,0,2.96,0v-1.02A1.477,1.477,0,0,0,1259.45,2007.91Zm26.55,1.74a1.485,1.485,0,0,0-1.48,1.49v3.9a1.48,1.48,0,1,0,2.96,0v-3.9A1.485,1.485,0,0,0,1286,2009.65Zm1.05-5.21a1.473,1.473,0,0,0-2.1,0,1.485,1.485,0,0,0,0,2.09,1.473,1.473,0,0,0,2.1,0A1.485,1.485,0,0,0,1287.05,2004.44Zm-6.25,5.51-2.17-2.17a1.485,1.485,0,1,0-2.1,2.1l2.17,2.17A1.485,1.485,0,0,0,1280.8,2009.95Zm14.67-2.25a1.485,1.485,0,0,0-2.1,0l-2.24,2.25a1.485,1.485,0,0,0,2.1,2.1l2.24-2.25A1.485,1.485,0,0,0,1295.47,2007.7Z"
          transform="translate(-1248 -2004)"/>
</svg>
