<svg id="Layer_1" xmlns="http://www.w3.org/2000/svg" viewBox="0 0 356.1 119.3">
    <style>.st1{fill:#283643}</style>
    <path d="M119.1 59.5c0 32.9-26.8 59.6-59.6 59.6S0 92.4 0 59.5 26.6 0 59.5 0s59.6 26.6 59.6 59.5z" fill="#65cdaa"/>
    <path class="st1" d="M94.3 62.5c.5-.6.8-.6.8-3.1-.9-1.1-4.2-1.1-6-.6 0 .5-.2 1.1-.2 1.7 1.4 1.4 3.8 2 5.4 2z"/>
    <path class="st1"
          d="M100.1 84.4c-2.5 5-5.8 7.2-11.3 9.4C79.9 91 73 84.7 71 76.5c.3-1.3 1.6-2.7 4.4-4.6 2.4-1.4 9.4-5.5 10.7-8-.9-1.6-2.5-2.5-4.1-3.3-5.7.3-14.5 4.6-17.2 3.6-.8-2.2-.2-6.1.9-9 .6-.5 6.5-4.1 7.4-4.2-.2.8-1.3 1.9-1.6 2.8 0 .2 2.5-2.7 4.1-3.1.3.5.8.9 1.7 1.4 1.1.3 3.3.5 4.6-.2.9-1.1 1.3-1.7 2-3.9.2 0 7.2 5.4 8.2 5.8.5.3 4.2 3 4.7 3.8.3.8.5 2.4.8 4.9.3 1.3 4.1 3.3 4.6 5.2-2 1.1-3.3 1.4-5.7 1.9-2 .6-3.3 1.1-5.7 1.6-1.6.3-4.7 1.1-6 1.7-1.3.6-3.5 2.8-4.9 3.3-3.5-.5-4.1-2.5-4.6-3-.5.2-.9.6-1.1.8.9 2.2 3.6 3.5 5.7 3.5 2.7-.5 3.9-2.4 5.7-3.5 2.2-.8 4.6-1.4 7.1-1.9 1.3-.3 2.7-.9 3.9-1.3 3.6-.5 4.2-1.3 5.7-1.7 1.4 4.3-.9 12-2.2 15.3zm-47.9 7.8c-1.9-1.9-5.8-8-6.3-10.7 0-7.7 1.3-10.9 4.7-17.6-1.9 6.1-3.8 11-3.1 17.2 1.3 3.3 2.8 6.6 6 9.9 3.3 2.5 7.9 3.8 14.2 6.5-6.5-1.3-11.2-2.6-15.5-5.3zm-18-56.1c-.6-.9-1.7-2.5-3.3-3.9 1.1-.9.9-2.7 2.8-3.9 1.6.8 4.9 5.4 6 6.8 1.4 1.4 2.8 3.1 4.2 4.6.3.5 3.1 3 4.2 4.2-.5.5-1.7 1.6-3.1 2.7-4.4-1.6-9.7-9-10.8-10.5zM59 17c3.6 1.6 10.7 7.7 12.1 11.3-2.8.3-4.1.6-6.3 1.3-4.1-5.4-9-7.1-14.3-10.7C51.6 17.2 57 17 59 17zm19.7 13.7c.5.5 1.6 1.7 1.7 2.7C79.9 35 68.8 38 67 37.5c.6-1.7 1.9-3.1 5.8-5 1-.5 3.5-1.8 5.9-1.8zm9.1 9.1c1.1 1.6.9 3.5.6 4.6-1.9.5-1.9.5-3.9.3-2.4-.3-8 1.4-9.1 1.6-3.3 1.3-6.1 2-8 3.9.3-3.3 16.2-11.1 20.4-10.4zm15.9 27.4c-1.1-2-4.7-4.6-4.9-5.4-.2-.9-.5-3.5-.9-4.9-.6-1.3-5.8-4.4-7.6-5.7-.6-.5-2.4-1.7-2.7-2.2 1.3-.6 2-.6 3.8-2.5-.2-3.1-1.7-6.9-2.2-7.6-.9-.6-1.3-.5-2.2-.8-.9-.6-2.7-4.2-3.6-5.7-1.4-2-2.5-3.1-6.5-3.8-2.2 0-2.2-.3-3.3-1.6-2.2-2-3.9-5.4-6.5-8.3-1.3-1.4-4.1-3.3-6-4.1-1.6-.6-6.3-1.4-8.5-1.4-2 0-3.3 0-5.4.3-6.3.9-10.9 2.8-15.3 7.6-2.7 2.8-3.9 7.6-6.1 10.9-.8 1.3-1.6 2.4-2.4 3.6-.9 1.3-1.7 2.2-2.7 3.3-1.3 1.4-2.5 2.7-3.6 4.1-1.3 1.6-2.5 2.7-3.9 3.9-.2.2-.3.3-.3.5-1.4 1.3-2.8 2.4-4.2 3.6-2 1.7-2.5 3.9-3.9 6.1-.8 1.1-1.6 2.2-2.4 3.5-.3.8-.8 1.4-1.3 2.2s-.8 1.6-.8 2.4v.9c2.8 29.9 28 53.2 58.7 53.2 10.5 0 20.5-2.7 29.1-7.6h-.2c-.3-.2-1.4-.3-1.7-.3-.9-.3-1.7-.5-2.5-.6-2.8-.8-16.4-5.7-16.8-7.1 1.1-.2 3.9-1.9 4.9-1.9 4.4.9 10.7 6 17.2 5.2 4.1-2.5 4.6-5.7 7.6-11.6 1.3-2.7 4.1-6.3 4.6-8.2 1.3-2.3 5.2-9.4 2.5-20zM200 53.6c-.2.8-.5 1.4-.8 1.9-.5.6-.9.9-1.6 1.3-.5.3-1.3.5-2 .5s-1.6-.2-2-.5c-.6-.3-1.1-.8-1.4-1.4-.3-.5-.6-1.1-.8-1.9s-.2-1.7-.2-2.5c0-1.1 0-1.9.2-2.7.3-.8.5-1.4.9-2 .3-.5.8-.9 1.4-1.3.6-.2 1.3-.3 2-.3s1.6.2 2.2.5c.5.3.9.8 1.4 1.3.3.6.5 1.3.6 2s.3 1.6.3 2.5 0 1.8-.2 2.6zm5.1-7.2c-.3-1.3-.9-2.4-1.7-3.3-.8-.8-1.9-1.4-3-1.9-1.3-.5-2.7-.8-4.4-.8-1.7 0-3.1.3-4.4.8-1.3.6-2.4 1.3-3.1 2.2-.9.9-1.6 2-2 3.5-.3 1.3-.6 2.7-.6 4.2s.3 3.1.6 4.4c.5 1.3.9 2.4 1.9 3.1.8.9 1.7 1.6 3 2 1.3.5 2.7.6 4.2.6 1.7 0 3.1-.2 4.6-.8 1.3-.5 2.2-1.1 3.1-2 .8-.9 1.4-2.2 1.9-3.5.5-1.3.6-2.7.6-4.2-.1-1.7-.3-3.1-.7-4.3zm17.7 6.7c-.2.8-.3 1.4-.6 1.9-.3.6-.8 1.1-1.3 1.4-.5.3-.9.5-1.7.5-.6 0-1.4-.3-2-.8-.6-.5-1.4-1.1-2.2-2V48c.5-.6.9-1.1 1.3-1.4.3-.5.8-.8 1.1-.9.3-.3.6-.5.9-.5.5-.2.8-.2 1.1-.2.6 0 1.3.2 1.7.5.5.3.8.8 1.1 1.4.3.5.5 1.1.6 1.9s.2 1.6.2 2.4c0 .5 0 1.3-.2 1.9zm5.2-6.4c-.3-1.1-.6-2.2-1.3-3.1s-1.4-1.7-2.4-2.2c-.9-.6-2.2-.9-3.5-.9-.6 0-1.1.2-1.6.2-.5.2-1.1.3-1.6.5-.5.3-.9.5-1.4.9-.5.3-.9.6-1.4 1.1V32.5c-.2-.2-.3-.2-.5-.3-.2 0-.5-.2-.8-.2h-2.6c-.3 0-.6.2-.8.2-.3.2-.5.2-.5.3-.2.2-.2.2-.2.3v27.4c0 .2 0 .3.2.3 0 .2.2.2.3.3.2 0 .5.2.6.2h2.2c.3 0 .5-.2.6-.2.3-.2.3-.2.5-.3 0 0 .2-.2.2-.3v-2c.5.6.9 1.1 1.4 1.4.5.5.9.8 1.4 1.1.5.2 1.1.3 1.6.5s1.1.2 1.7.2c1.3 0 2.4-.2 3.5-.6.9-.6 1.7-1.3 2.4-2.2.8-.9 1.3-2 1.6-3.3.5-1.4.6-2.8.6-4.6.3-1.4.2-2.8-.2-4zm9.6-13.4c-.3-.5-1.1-.6-2.4-.6-1.1 0-1.9.2-2.4.6-.5.3-.6 1.1-.6 2.2 0 .9.2 1.7.6 2 .3.5 1.1.6 2.4.6 1.1 0 1.9-.2 2.4-.6.5-.5.6-1.1.6-2.2.1-.9-.1-1.7-.6-2zm.4 8.3c0-.2-.2-.2-.2-.3-.2-.2-.3-.2-.5-.3-.2 0-.5-.2-.8-.2h-2.6c-.3 0-.6.2-.8.2-.2.2-.3.2-.5.3 0 .2-.2.2-.2.3v18.6c0 .2.2.2.2.3.2.2.3.2.5.3.2 0 .5 0 .8.2h2.6c.3-.2.6-.2.8-.2.2-.2.3-.2.5-.3 0-.2.2-.2.2-.3V41.6zm16.3-8c0-.3-.2-.5-.2-.6 0-.3-.2-.3-.3-.5 0-.2-.2-.2-.5-.3-.3-.2-.6-.2-1.1-.3-.6 0-1.1-.2-1.6-.2-1.1 0-2.2.2-3 .5-.8.5-1.4.9-2 1.6-.5.6-.9 1.4-1.1 2.4-.3.9-.5 2-.5 3.3V41h-2.7c0 .2-.2.2-.2.3-.2.2-.2.5-.2.8v.9c0 .8 0 1.3.2 1.6.2.3.3.5.6.5h2.2v15.1c0 .2.2.2.2.3.2.2.2.2.5.3.2 0 .5 0 .8.2h2.6c.3-.2.6-.2.8-.2.2-.2.3-.2.5-.3 0-.2.2-.2.2-.3V45.1h3.3c.3 0 .5-.2.6-.5.2-.3.2-.8.2-1.6v-.9c0-.3-.2-.6-.2-.8s-.2-.2-.3-.3h-3.6v-3.3c.2-.3.3-.8.5-.9.2-.3.3-.5.6-.6.3-.2.6-.2.9-.2s.6 0 .9.2c.2 0 .3 0 .5.2.3 0 .5 0 .5.2h.6c0-.2.2-.2.2-.3s.2-.3.2-.6v-.9c-.1-.6-.1-1-.1-1.2zm7.3-.3c-.3-.5-1.1-.6-2.4-.6-1.1 0-1.9.2-2.4.6-.5.3-.6 1.1-.6 2.2 0 .9.2 1.7.6 2 .5.5 1.3.6 2.4.6 1.1 0 2-.2 2.4-.6.5-.5.6-1.1.6-2.2 0-.9-.2-1.7-.6-2zm.3 8.3c0-.2 0-.2-.2-.3 0-.2-.2-.2-.5-.3-.2 0-.5-.2-.8-.2h-2.6c-.3 0-.6.2-.8.2-.2.2-.3.2-.5.3v19.2c.2.2.3.2.5.3.2 0 .5 0 .8.2h2.6c.3-.2.6-.2.8-.2.3-.2.5-.2.5-.3.2-.2.2-.2.2-.3V41.6zm16.2 15.8c-.2-.3-.2-.5-.2-.6s-.2-.2-.2-.3h-.6c-.2.2-.3.2-.5.3-.2 0-.3 0-.5.2h-.8c-.8 0-1.4-.3-1.7-.8-.3-.5-.5-1.3-.5-2.2v-8.8h4.1c.2 0 .5-.2.6-.5 0-.3.2-.8.2-1.6v-.9c-.2-.3-.2-.6-.2-.8l-.3-.3h-4.4v-4.2c0-.2 0-.2-.2-.3 0-.2-.2-.2-.5-.3-.2 0-.3-.2-.8-.2H269c-.4 0-.6.2-.8.2-.2.2-.3.2-.5.3V41H265c0 .2-.2.2-.2.3-.2.2-.2.5-.2.8 0 .2-.2.5-.2.9 0 .8.2 1.3.3 1.6.2.3.3.5.6.5h2.2v9.6c0 1.1 0 2 .3 3 .2.8.6 1.4 1.1 2 .5.5 1.1.9 1.9 1.1.8.3 1.7.5 2.7.5.5 0 .8 0 1.3-.2.3 0 .6 0 .9-.2.3 0 .6-.2.9-.2l.5-.5c.2 0 .3-.3.3-.6.2-.3.2-.8.2-1.4.5-.2.5-.5.5-.8zm21.5-8.7c0-1.4-.2-2.5-.5-3.5-.2-.9-.6-1.7-1.1-2.5-.5-.6-1.3-1.3-2-1.7-.9-.3-2-.6-3.3-.6-1.1 0-2.2.3-3.3.9-1.1.5-2 1.4-3.1 2.5v-2.5c-.2-.2-.3-.3-.5-.3s-.3-.2-.6-.2H283c-.2 0-.5.2-.6.2s-.3.2-.3.3c-.2 0-.2.2-.2.3v18.6c0 .2 0 .2.2.3 0 .2.2.2.3.3.3 0 .5 0 .9.2h2.6c.3-.2.5-.2.8-.2.2-.2.3-.2.3-.3.2-.2.2-.2.2-.3V47.8c.8-.8 1.4-1.6 2.2-2 .6-.5 1.3-.8 2-.8.5 0 .9.2 1.3.3.5.3.8.5.9.9.3.3.5.8.6 1.3.2.5.2 1.3.2 2.2v10.5c0 .2.2.2.2.3.2.2.3.2.5.3.2 0 .5 0 .8.2h2.6c.3-.2.6-.2.8-.2.2-.2.3-.2.5-.3 0-.2.2-.2.2-.3V48.7zm9.3.2c0-.6.2-1.3.3-1.9.2-.5.5-1.1.8-1.4.3-.5.8-.8 1.3-1.1.5-.2.9-.3 1.7-.3 1.3 0 2.2.5 2.8 1.3.6.8.9 2 .9 3.5h-7.8zm12.9.6c0-1.3-.2-2.5-.5-3.6s-.8-2-1.6-2.8c-.6-.8-1.6-1.4-2.7-1.9s-2.5-.8-4.1-.8c-1.4 0-2.7.3-3.9.8-1.1.5-2 1.3-3 2.2-.8.8-1.4 1.9-1.9 3.3-.3 1.3-.6 2.8-.6 4.4 0 1.7.3 3.3.6 4.6.5 1.3 1.1 2.4 1.9 3.1.8.9 1.9 1.6 3.1 1.9 1.3.5 2.7.6 4.2.6.9 0 1.9 0 2.7-.2.8-.2 1.4-.2 2-.3.6-.2 1.3-.5 1.6-.6.5-.2.6-.2.8-.3 0-.2.2-.2.2-.3.2-.2.2-.2.2-.3v-.6c.2-.2.2-.5.2-.8 0-.3-.2-.6-.2-.8v-.6c-.2-.2-.2-.2-.3-.2 0-.2-.2-.2-.3-.2s-.5.2-.8.2c-.3.2-.8.3-1.3.5s-1.1.3-1.7.5c-.8.2-1.6.2-2.5.2-.8 0-1.6-.2-2.2-.3-.6-.3-1.3-.6-1.6-1.1-.5-.3-.8-.9-.9-1.6s-.3-1.4-.3-2.2h11.3c.5 0 .9-.2 1.1-.5.3-.3.5-.6.5-1.4v-.9zm17 3.3c-.3-.6-.6-1.3-1.1-1.7-.3-.3-.8-.8-1.4-1.1-.5-.3-1.1-.5-1.7-.8-.5-.2-1.1-.5-1.6-.6-.6-.2-1.1-.3-1.4-.6-.5-.2-.8-.5-1.1-.8-.3-.2-.5-.6-.5-.9 0-.3.2-.6.3-.8 0-.3.2-.5.5-.6.2-.3.5-.3.8-.5s.8-.2 1.3-.2c.6 0 1.3 0 1.7.2.6.2.9.3 1.4.5.3.2.8.3.9.5.3.2.5.3.6.3s.2 0 .3-.2c0 0 .2-.2.2-.3 0 0 .2-.3.2-.5V43c0-.2-.2-.5-.2-.5 0-.2 0-.3-.2-.5 0 0-.2-.2-.2-.3-.2 0-.5-.2-.8-.3-.2-.2-.6-.3-1.1-.5-.3-.2-.9-.2-1.4-.3-.6 0-1.1-.2-1.7-.2-1.1 0-2.2.2-3.1.5-.9.3-1.7.8-2.4 1.3-.6.5-1.1 1.1-1.6 1.9-.3.8-.5 1.6-.5 2.5 0 .8.2 1.6.5 2.2.2.6.5 1.1.9 1.6.5.5.9.8 1.4 1.1.6.3 1.1.6 1.7.8.5.3 1.1.5 1.6.6.5.3.9.5 1.4.6.5.3.8.5 1.1.8.2.3.3.6.3 1.1 0 .3 0 .6-.2.9-.2.3-.3.5-.6.8-.3.2-.6.3-.9.3-.5.2-.8.2-1.3.2-.8 0-1.4 0-2-.3-.6-.2-1.1-.3-1.6-.5-.5-.3-.8-.5-1.1-.6-.3-.2-.5-.3-.6-.3s-.3.2-.3.2c-.2 0-.2.2-.2.3-.2.2-.2.3-.2.5 0 .3-.2.6-.2 1.1 0 .5.2.9.2 1.3.2.3.3.6.5.8 0 .2.3.3.6.5s.8.3 1.3.5 1.1.3 1.7.3c.6.2 1.3.2 1.9.2 1.3 0 2.4-.2 3.3-.3.9-.3 1.9-.8 2.5-1.3.8-.5 1.3-1.3 1.7-2 .3-.8.5-1.7.5-2.8.2-1.1.2-1.9-.1-2.4zm17 0c-.3-.6-.6-1.3-1.1-1.7-.3-.3-.8-.8-1.4-1.1-.5-.3-1.1-.5-1.7-.8-.5-.2-1.1-.5-1.6-.6-.6-.2-1.1-.3-1.4-.6-.5-.2-.8-.5-1.1-.8-.3-.2-.5-.6-.5-.9 0-.3.2-.6.3-.8 0-.3.2-.5.5-.6.2-.3.5-.3.8-.5s.8-.2 1.3-.2c.6 0 1.3 0 1.7.2.6.2.9.3 1.4.5.3.2.8.3.9.5.3.2.5.3.6.3s.2 0 .3-.2c0 0 .2-.2.2-.3 0 0 .2-.3.2-.5V43c0-.2-.2-.5-.2-.5 0-.2 0-.3-.2-.5 0 0-.2-.2-.2-.3-.2 0-.5-.2-.8-.3-.2-.2-.6-.3-1.1-.5-.3-.2-.9-.2-1.4-.3-.6 0-1.1-.2-1.7-.2-1.1 0-2.2.2-3.1.5-.9.3-1.7.8-2.4 1.3-.6.5-1.1 1.1-1.6 1.9-.3.8-.5 1.6-.5 2.5 0 .8.2 1.6.5 2.2.2.6.5 1.1.9 1.6.5.5.9.8 1.4 1.1.6.3 1.1.6 1.7.8.5.3 1.1.5 1.6.6.5.3.9.5 1.4.6.5.3.8.5 1.1.8.2.3.3.6.3 1.1 0 .3 0 .6-.2.9-.2.3-.3.5-.6.8-.3.2-.6.3-.9.3-.5.2-.8.2-1.3.2-.8 0-1.4 0-2-.3-.6-.2-1.1-.3-1.6-.5-.5-.3-.8-.5-1.1-.6-.3-.2-.5-.3-.6-.3s-.3.2-.3.2c-.2 0-.2.2-.2.3-.2.2-.2.3-.2.5 0 .3-.2.6-.2 1.1 0 .5.2.9.2 1.3.2.3.3.6.5.8 0 .2.3.3.6.5s.8.3 1.3.5 1.1.3 1.7.3c.6.2 1.3.2 1.9.2 1.3 0 2.4-.2 3.3-.3.9-.3 1.9-.8 2.5-1.3.8-.5 1.3-1.3 1.7-2 .3-.8.5-1.7.5-2.8.2-1.1.2-1.9-.1-2.4zM181.3 36.1c0-.3 0-.6-.2-.9 0-.2-.2-.5-.3-.6s-.5-.3-.6-.5c-.3 0-.6-.2-.9-.2h-3.8c-.5 0-.9.2-1.3.2-.5.2-.8.3-1.1.6-.3.2-.5.5-.8.9-.2.5-.3.9-.5 1.4l-6.1 16.1-5.8-16.1c-.2-.6-.5-1.1-.6-1.4-.2-.5-.5-.8-.8-.9-.3-.3-.8-.5-1.3-.6-.5 0-.9-.2-1.6-.2H152c-.6 0-1.1.3-1.4.6-.5.3-.6.9-.6 1.6V60c0 .2 0 .3.2.5 0 .2.2.2.3.3.3 0 .5 0 .8.2h2.6c.3-.2.6-.2.8-.2.3-.2.5-.2.5-.3.2-.2.2-.3.2-.5V38.3L163 60c0 .2.2.3.3.5 0 .2.2.2.5.3.2 0 .5 0 .8.2h2.4c.3 0 .6-.2.9-.2.2 0 .3-.2.5-.3.2-.2.2-.2.3-.5l7.7-21.7V60c0 .2.2.3.2.5.2.2.3.2.5.3.2 0 .5 0 .8.2h2.6c.3-.2.6-.2.8-.2.2-.2.3-.2.5-.3V36.1zm-29.2 40.6c.5-.7 1.3-1.1 2.2-1.1.9 0 1.6.2 2.1.7.5.5.8 1.2.8 2h1.6v-.1c0-1.2-.4-2.2-1.2-2.9-.8-.7-1.9-1.1-3.3-1.1s-2.5.5-3.4 1.5c-.9 1-1.3 2.2-1.3 3.7v2.2c0 1.5.4 2.7 1.3 3.7s2 1.5 3.4 1.5 2.5-.4 3.3-1.2c.8-.8 1.2-1.7 1.2-2.9v-.1h-1.6c0 .9-.3 1.6-.8 2.1s-1.2.7-2.1.7c-.9 0-1.7-.4-2.2-1.1-.5-.7-.8-1.7-.8-2.8v-2.2c0-1 .3-1.9.8-2.6zm10.7 7.3l-.1-6.5h-1.6v9.1h1.6l4-6.5h.1v6.4h1.7v-9.1h-1.7l-4 6.6zm10.4-4.4c.4-.6 1-.9 1.9-.9.6 0 1.1.2 1.5.6.4.4.6.9.6 1.4h1.5v-.1c0-.9-.3-1.7-1-2.3-.7-.6-1.5-.9-2.6-.9-1.3 0-2.3.4-3 1.3-.7.9-1.1 1.9-1.1 3.2v.4c0 1.3.3 2.4 1 3.2.7.9 1.7 1.3 3 1.3 1 0 1.8-.3 2.5-.9.7-.6 1.1-1.3 1-2.1v-.1H177c0 .5-.2.9-.6 1.2-.4.3-.9.5-1.4.5-.9 0-1.5-.3-1.9-.9-.4-.6-.6-1.4-.6-2.3v-.4c.1-.8.3-1.5.7-2.2zm7.1-.7h3v7.8h1.7v-7.8h3v-1.3h-7.6v1.3zm13.2-1.5c-1.1 0-2 .4-2.7 1.3-.8.9-1.2 1.9-1.2 3.2v.4c0 1.3.4 2.4 1.1 3.3.7.8 1.8 1.3 3 1.3.8 0 1.4-.1 1.9-.3.5-.2 1-.5 1.3-.8l-.6-1.1c-.3.3-.7.5-1.1.7-.4.2-.9.2-1.5.2-.8 0-1.4-.3-1.8-.8-.4-.6-.6-1.3-.7-2.1h5.9v-1c0-1.2-.3-2.2-.9-3-.6-.9-1.5-1.3-2.7-1.3zm2 3.8h-4.2c.1-.7.3-1.3.7-1.8.4-.5.9-.7 1.4-.7.7 0 1.2.2 1.5.7.3.4.5 1 .5 1.6v.2zm9.2 3.3l-3-6.9h-2.1v9.1h1.7v-6.4h.1l2.8 6.5h1.1l2.8-6.3h.1v6.3h1.7v-9.1h-2.1l-3.1 6.8zm15.1.3v-4.4c0-1-.3-1.7-.9-2.3-.6-.5-1.5-.8-2.5-.8s-1.9.3-2.5.8c-.7.5-1 1.2-.9 1.8v.1h1.6c0-.4.2-.7.5-1 .3-.3.8-.4 1.3-.4.6 0 1.1.2 1.4.5.3.3.5.7.5 1.3v.9h-1.8c-1.2 0-2.2.2-2.9.7-.7.5-1.1 1.2-1.1 2 0 .9.2 1.5.7 2 .5.5 1.2.7 2.2.7.6 0 1.1-.1 1.6-.4.5-.3.9-.7 1.2-1.1 0 .2 0 .4.1.6 0 .2.1.5.1.7h1.7c-.1-.3-.2-.6-.2-.9s-.1-.5-.1-.8zm-1.7-.9c-.1.4-.5.7-.9 1.1-.5.3-1 .5-1.6.5-.5 0-.9-.1-1.1-.4-.3-.2-.4-.6-.4-1 0-.5.2-.8.6-1.2.4-.3.9-.5 1.6-.5h1.9v1.5zm16.3.9v-4.4c0-1-.3-1.7-.9-2.3-.6-.5-1.5-.8-2.5-.8s-1.9.3-2.5.8c-.7.5-1 1.2-.9 1.8v.1h1.6c0-.4.2-.7.5-1 .3-.3.8-.4 1.3-.4.6 0 1.1.2 1.4.5.3.3.5.7.5 1.3v.9h-1.8c-1.2 0-2.2.2-2.9.7-.7.5-1.1 1.2-1.1 2 0 .9.2 1.5.7 2 .5.5 1.2.7 2.2.7.6 0 1.1-.1 1.6-.4s.9-.7 1.2-1.1c0 .2 0 .4.1.6 0 .2.1.5.1.7h1.7c-.1-.3-.2-.6-.2-.9s-.1-.5-.1-.8zm-1.7-.9c-.1.4-.5.7-.9 1.1-.5.3-1 .5-1.6.5-.5 0-.9-.1-1.1-.4-.3-.2-.4-.6-.4-1 0-.5.2-.8.6-1.2.4-.3.9-.5 1.6-.5h1.9v1.5zm10.4-1.9c.5-.2.8-.4 1.1-.8.3-.3.4-.7.4-1.1 0-.8-.3-1.5-1-1.9-.7-.4-1.6-.6-2.8-.6h-3.6v9.1h4.2c1.1 0 2-.2 2.6-.7.6-.4.9-1.1.9-1.9 0-.5-.2-.9-.5-1.3s-.8-.7-1.3-.8zm-4.3-3.1h1.9c.7 0 1.2.1 1.6.3.4.2.5.5.5 1 0 .4-.2.7-.5.9-.4.2-.9.3-1.6.3h-1.9v-2.5zm3.9 6.1c-.3.2-.8.3-1.4.3h-2.5v-2.7h2.5c.6 0 1.1.1 1.4.4.3.2.5.6.5 1s-.2.8-.5 1zm4-6.1h3v7.8h1.7v-7.8h3v-1.3h-7.6v1.3zm13.3-1.5c-1.2 0-2.2.4-3 1.3-.7.9-1.1 2-1.1 3.3v.2c0 1.3.4 2.5 1.1 3.3.7.9 1.7 1.3 3 1.3s2.2-.4 3-1.3c.7-.9 1.1-2 1.1-3.3V82c0-1.3-.4-2.5-1.1-3.3-.8-.9-1.8-1.3-3-1.3zm2.4 4.8c0 1-.2 1.8-.6 2.4-.4.6-1 .9-1.8.9s-1.4-.3-1.8-.9c-.4-.6-.6-1.4-.6-2.4V82c0-.9.2-1.7.6-2.4.4-.6 1-.9 1.8-.9s1.4.3 1.8.9c.4.6.6 1.4.6 2.4v.2zm9.3 2.3l-3-6.9h-2.1v9.1h1.7v-6.4h.1l2.8 6.5h1.1l2.8-6.3h.1v6.3h1.7v-9.1h-2.1l-3.1 6.8zm15.1.3v-4.4c0-1-.3-1.7-.9-2.3-.6-.5-1.5-.8-2.5-.8s-1.9.3-2.5.8c-.7.5-1 1.2-.9 1.8v.1h1.6c0-.4.2-.7.5-1 .3-.3.8-.4 1.3-.4.6 0 1.1.2 1.4.5.3.3.5.7.5 1.3v.9h-1.8c-1.2 0-2.2.2-2.9.7-.7.5-1.1 1.2-1.1 2 0 .9.2 1.5.7 2 .5.5 1.2.7 2.2.7.6 0 1.1-.1 1.6-.4s.9-.7 1.2-1.1c0 .2 0 .4.1.6 0 .2.1.5.1.7h1.7c-.1-.3-.2-.6-.2-.9s-.1-.5-.1-.8zm-1.7-.9c-.1.4-.5.7-.9 1.1-.5.3-1 .5-1.6.5-.5 0-.9-.1-1.1-.4-.3-.2-.4-.6-.4-1 0-.5.2-.8.6-1.2.4-.3.9-.5 1.6-.5h1.9v1.5zm3.8-5h3v7.8h1.7v-7.8h3v-1.3H289v1.3zm11.5 5.1l-.1-6.5h-1.6v9.1h1.6l4-6.5h.1v6.4h1.7v-9.1h-1.7l-4 6.6zm13.6-2c.4-.2.8-.5 1-.8.2-.3.4-.7.4-1.1 0-.8-.3-1.5-.9-2-.6-.5-1.4-.7-2.5-.7-1 0-1.8.2-2.5.7-.7.5-1 1.1-1 1.9v.1h1.6c0-.4.2-.7.5-1 .4-.3.8-.4 1.3-.4.6 0 1 .1 1.3.4.3.3.4.6.4 1s-.1.7-.4 1c-.3.2-.7.3-1.2.3h-1.6v1.3h1.6c.6 0 1.1.1 1.4.3.3.2.4.6.4 1.1 0 .4-.2.8-.5 1-.3.3-.8.4-1.4.4-.6 0-1.1-.2-1.4-.5-.4-.3-.6-.7-.6-1.1h-1.6v.1c0 .9.3 1.6 1 2.1s1.6.7 2.5.7c1.1 0 1.9-.2 2.6-.7.7-.5 1-1.1 1-2 0-.5-.1-.9-.4-1.3-.1-.4-.4-.6-1-.8zm11.1 2.8v-4.4c0-1-.3-1.7-.9-2.3-.6-.5-1.5-.8-2.5-.8s-1.9.3-2.5.8c-.7.5-1 1.2-.9 1.8v.1h1.6c0-.4.2-.7.5-1 .3-.3.8-.4 1.3-.4.6 0 1.1.2 1.4.5.3.3.5.7.5 1.3v.9h-1.8c-1.2 0-2.2.2-2.9.7-.7.5-1.1 1.2-1.1 2 0 .9.2 1.5.7 2 .5.5 1.2.7 2.2.7.6 0 1.1-.1 1.6-.4s.9-.7 1.2-1.1c0 .2 0 .4.1.6 0 .2.1.5.1.7h1.7c-.1-.3-.2-.6-.2-.9-.1-.2-.1-.5-.1-.8zm-1.6-.9c-.1.4-.5.7-.9 1.1-.5.3-1 .5-1.6.5-.5 0-.9-.1-1.1-.4-.3-.2-.4-.6-.4-1 0-.5.2-.8.6-1.2.4-.3.9-.5 1.6-.5h1.9v1.5zm11.8-6.3h-1.7v7.8h-4.1v-7.8h-1.7v9.1h6.8v3h1.7v-4.3h-1.1v-7.8zm5 6.4l-.1-6.5h-1.6v9.1h1.6l4-6.5h.1v6.4h1.7v-9.1h-1.7l-4 6.6zm14.2-6.4l-4 6.5h-.1v-6.4h-1.6v9.1h1.6l4-6.5h.1v6.4h1.7v-9.1h-1.7z"/>
</svg>