<?xml version="1.0" encoding="UTF-8"?>
<!DOCTYPE svg PUBLIC "-//W3C//DTD SVG 1.1//EN" "http://www.w3.org/Graphics/SVG/1.1/DTD/svg11.dtd">
<!-- Creator: CorelDRAW X8 -->
<svg xmlns="http://www.w3.org/2000/svg" xml:space="preserve" width="210.008mm" height="51.1547mm" version="1.1" style="shape-rendering:geometricPrecision; text-rendering:geometricPrecision; image-rendering:optimizeQuality; fill-rule:evenodd; clip-rule:evenodd"
viewBox="0 0 12465 3036"
 xmlns:xlink="http://www.w3.org/1999/xlink">
 <defs>
  <style type="text/css">
   <![CDATA[
    .fil1 {fill:#283643}
    .fil0 {fill:#65CDAA}
    .fil2 {fill:#283643;fill-rule:nonzero}
   ]]>
  </style>
 </defs>
 <g id="Слой_x0020_1">
  <metadata id="CorelCorpID_0Corel-Layer"/>
  <path class="fil0" d="M3032 1514c0,838 -683,1518 -1518,1518 -834,0 -1514,-680 -1514,-1518 0,-837 677,-1514 1514,-1514 838,0 1518,677 1518,1514z"/>
  <path class="fil1" d="M2400 1591c13,-15 20,-15 20,-79 -22,-28 -106,-28 -152,-15 0,12 -5,28 -5,43 35,36 96,51 137,51z"/>
  <path class="fil1" d="M2548 2148c-64,127 -148,184 -288,239 -226,-71 -402,-231 -453,-440 8,-33 41,-69 112,-117 61,-35 239,-140 273,-204 -24,-40 -64,-63 -105,-83 -145,7 -369,116 -438,91 -20,-56 -5,-155 23,-229 16,-13 166,-104 189,-107 -5,21 -33,48 -41,72 0,4 63,-69 104,-79 8,12 20,22 44,35 27,8 84,13 116,-5 23,-28 33,-43 51,-99 6,0 184,137 209,148 13,7 107,76 120,96 7,20 13,61 20,125 8,33 105,84 117,132 -51,28 -84,36 -145,48 -51,16 -84,28 -145,41 -40,8 -119,28 -153,44 -33,15 -89,71 -124,84 -90,-13 -105,-64 -117,-77 -13,5 -23,15 -28,20 22,57 91,90 145,90 68,-13 99,-62 145,-90 56,-20 117,-35 180,-48 34,-7 69,-23 100,-33 91,-13 107,-33 145,-43 35,109 -23,305 -56,389l0 0zm-1219 199c-49,-49 -148,-204 -161,-273 0,-196 33,-277 120,-448 -48,156 -97,281 -79,438 33,84 71,168 153,252 84,64 201,97 361,165 -165,-33 -285,-65 -394,-134l0 0zm-459 -1428c-15,-23 -43,-64 -84,-100 29,-22 23,-68 72,-98 40,20 124,137 152,173 36,35 72,78 107,116 8,13 80,77 107,107 -12,13 -43,41 -78,69 -113,-40 -248,-229 -276,-267l0 0zm632 -486c91,40 272,196 308,288 -72,7 -105,15 -161,32 -104,-137 -229,-180 -364,-272 28,-43 166,-48 217,-48l0 0zm501 349c13,12 41,43 43,68 -12,41 -295,117 -341,105 15,-44 48,-79 148,-128 25,-12 89,-45 150,-45l0 0zm232 231c28,41 23,89 15,117 -48,13 -48,13 -99,8 -61,-8 -204,35 -232,41 -84,33 -155,50 -203,99 7,-84 412,-283 519,-265zm404 697c-28,-51 -119,-117 -124,-137 -5,-23 -13,-89 -23,-125 -15,-33 -148,-112 -194,-145 -15,-12 -61,-43 -69,-56 34,-15 51,-15 97,-64 -4,-79 -43,-175 -55,-193 -24,-15 -34,-13 -57,-20 -22,-15 -68,-107 -91,-145 -36,-51 -64,-79 -166,-97 -56,0 -56,-7 -84,-41 -56,-51 -99,-137 -165,-211 -33,-36 -104,-84 -153,-104 -41,-15 -160,-36 -216,-36 -51,0 -84,0 -138,7 -160,24 -277,72 -389,194 -69,72 -99,194 -155,278 -21,33 -41,61 -62,91 -22,33 -43,56 -68,84 -33,36 -64,69 -92,104 -33,41 -63,69 -99,100 -5,5 -8,7 -8,13 -35,33 -71,61 -107,91 -51,43 -63,99 -99,155 -20,29 -40,56 -61,90 -7,20 -20,35 -33,55 -13,21 -20,41 -20,61l0 0c0,6 0,6 0,6 0,5 0,5 0,5 0,5 0,7 0,12 71,762 713,1354 1494,1354 267,0 521,-68 741,-193l0 0 -6 0c-8,-5 -35,-8 -43,-8 -23,-7 -43,-12 -63,-15 -72,-20 -418,-145 -428,-181 28,-5 99,-48 125,-48 112,23 272,153 437,132 104,-63 118,-145 194,-295 33,-69 104,-160 117,-209 33,-58 132,-239 63,-509l0 0z"/>
  <path class="fil1" d="M4083 2353c20,-29 53,-45 90,-45 37,0 66,7 86,28 21,21 33,50 33,82l66 0 0 -4c0,-50 -17,-90 -50,-119 -32,-29 -78,-45 -135,-45 -57,0 -102,20 -140,61 -36,42 -53,91 -53,152l0 91c0,62 17,111 53,152 38,40 83,62 140,62 57,0 103,-17 135,-50 33,-33 50,-70 50,-119l0 -5 -66 0c0,38 -12,67 -33,87 -20,20 -49,29 -86,29 -37,0 -70,-17 -90,-45 -21,-29 -34,-71 -34,-116l0 -89c0,-42 13,-79 34,-107zm439 299l0 0 -4 -266 -65 0 0 373 65 0 165 -267 4 0 0 263 69 0 0 -374 -69 0 -165 271zm427 -181c17,-24 42,-36 78,-36 25,0 45,8 62,25 16,16 25,36 25,56l61 0 0 -3c0,-37 -12,-70 -41,-95 -29,-25 -62,-37 -107,-37 -53,0 -94,17 -123,54 -29,36 -45,78 -45,131l0 17c0,53 12,98 41,131 29,37 70,54 123,54 41,0 75,-13 103,-38 28,-24 45,-53 41,-86l0 -4 -62 0c0,21 -7,37 -24,50 -17,11 -37,20 -58,20 -37,0 -61,-13 -78,-37 -16,-25 -25,-57 -25,-95l0 -16c4,-33 13,-62 29,-91zm292 -28l123 0 0 320 70 0 0 -320 124 0 0 -54 -313 0 0 54 -4 0 0 0zm542 -62c-46,0 -82,17 -111,54 -33,36 -49,78 -49,131l0 17c0,53 16,98 45,135 29,33 74,53 123,53 33,0 58,-3 78,-12 21,-8 42,-20 54,-33l-25 -45c-12,12 -29,20 -45,29 -16,8 -37,8 -62,8 -32,0 -57,-12 -74,-33 -16,-24 -24,-53 -29,-86l0 0 243 0 0 -41c0,-49 -13,-91 -37,-123 -25,-37 -61,-54 -111,-54l0 0zm82 157l-172 0 0 0c4,-29 12,-54 28,-75 16,-20 38,-28 58,-28 29,0 49,8 61,28 13,17 21,42 21,66l0 9 4 0zm378 135l0 0 -123 -284 -86 0 0 374 69 0 0 -263 5 0 115 268 45 0 114 -259 5 0 0 259 69 0 0 -375 -85 0 -128 280zm620 12l0 -180c0,-42 -12,-70 -37,-95 -24,-21 -62,-33 -102,-33 -41,0 -78,12 -103,33 -29,21 -41,50 -37,74l0 4 66 0c0,-17 7,-28 20,-41 13,-12 33,-16 54,-16 24,0 45,7 57,20 12,12 21,29 21,54l0 36 -74 0c-49,0 -91,8 -120,29 -28,20 -45,49 -45,82 0,38 9,62 29,82 20,21 49,29 91,29 25,0 45,-4 65,-17 21,-12 38,-28 49,-45 0,9 0,17 5,25 0,8 4,20 4,29l70 0c-5,-12 -9,-25 -9,-37 0,-12 -4,-21 -4,-33zm-70 -37c-4,17 -20,29 -36,45 -21,13 -42,21 -66,21 -21,0 -37,-4 -45,-17 -13,-7 -17,-24 -17,-41 0,-20 8,-33 25,-49 16,-13 37,-20 65,-20l78 0 0 61 -4 0zm670 37l0 -180c0,-42 -13,-70 -37,-95 -25,-21 -62,-33 -103,-33 -41,0 -77,12 -103,33 -28,21 -41,50 -36,74l0 4 65 0c0,-17 8,-28 21,-41 12,-12 32,-16 53,-16 25,0 46,7 58,20 12,12 20,29 20,54l0 36 -74 0c-49,0 -90,8 -119,29 -29,20 -45,49 -45,82 0,38 8,62 29,82 20,21 49,29 90,29 25,0 45,-4 66,-17 21,-12 37,-28 50,-45 0,9 0,17 3,25 0,8 4,20 4,29l71 0c-5,-12 -9,-25 -9,-37 0,-12 -4,-21 -4,-33zm-70 -37c-4,17 -20,29 -37,45 -20,13 -41,21 -65,21 -21,0 -38,-4 -45,-17 -13,-7 -17,-24 -17,-41 0,-20 8,-33 24,-49 17,-13 38,-20 66,-20l79 0 0 61 -5 0zm427 -78c21,-8 33,-16 45,-32 13,-13 17,-29 17,-46 0,-32 -13,-61 -41,-78 -29,-16 -66,-25 -115,-25l-148 0 0 374 173 0c45,0 82,-8 106,-28 25,-17 37,-45 37,-79 0,-20 -9,-37 -20,-53 -13,-16 -33,-29 -54,-33l0 0zm-176 -127l78 0c29,0 49,4 65,12 17,8 21,21 21,41 0,17 -8,29 -21,37 -16,8 -36,12 -65,12l-78 0 0 -102zm160 250c-13,8 -33,13 -58,13l-102 0 0 -112 102 0c25,0 45,5 58,17 12,8 20,25 20,41 0,16 -8,33 -20,41zm164 -250l123 0 0 320 70 0 0 -320 123 0 0 -54 -312 0 0 54 -4 0 0 0zm546 -62c-49,0 -90,17 -123,54 -29,36 -46,81 -46,135l0 8c0,54 17,103 46,136 29,37 70,54 123,54 54,0 90,-17 123,-54 29,-37 45,-82 45,-136l0 -8c0,-54 -16,-103 -45,-135 -33,-37 -73,-54 -123,-54zm99 197c0,41 -9,74 -25,99 -16,24 -41,37 -74,37 -33,0 -57,-13 -73,-37 -17,-25 -25,-58 -25,-99l0 -8c0,-37 8,-70 25,-99 16,-24 40,-36 73,-36 33,0 58,12 74,36 16,25 25,58 25,99l0 8zm382 95l0 0 -123 -284 -87 0 0 374 71 0 0 -263 3 0 115 268 45 0 116 -259 3 0 0 259 71 0 0 -375 -87 0 -127 280zm620 12l0 -180c0,-42 -13,-70 -37,-95 -25,-21 -61,-33 -103,-33 -41,0 -78,12 -103,33 -28,21 -40,50 -36,74l0 4 65 0c0,-17 9,-28 21,-41 12,-12 33,-16 53,-16 25,0 46,7 58,20 12,12 20,29 20,54l0 36 -74 0c-49,0 -90,8 -119,29 -28,20 -44,49 -44,82 0,38 7,62 28,82 21,21 50,29 90,29 25,0 45,-4 66,-17 21,-12 37,-28 49,-45 0,9 0,17 4,25 0,8 4,20 4,29l70 0c-3,-12 -8,-25 -8,-37 0,-12 -4,-21 -4,-33zm-70 -37c-4,17 -21,29 -37,45 -20,13 -41,21 -65,21 -21,0 -38,-4 -46,-17 -12,-7 -16,-24 -16,-41 0,-20 8,-33 24,-49 17,-13 38,-20 66,-20l78 0 0 61 -4 0zm156 -205l124 0 0 320 69 0 0 -320 123 0 0 -54 -312 0 0 54 -4 0 0 0zm473 209l0 0 -5 -266 -65 0 0 373 65 0 165 -267 4 0 0 263 70 0 0 -374 -70 0 -164 271zm558 -82c17,-8 33,-21 42,-32 7,-13 16,-29 16,-46 0,-32 -13,-61 -38,-82 -24,-21 -57,-29 -102,-29 -41,0 -74,8 -103,29 -28,21 -41,45 -41,78l0 4 66 0c0,-16 8,-29 21,-41 16,-13 32,-16 53,-16 25,0 41,3 53,16 13,12 17,25 17,41 0,17 -4,29 -17,41 -12,8 -28,12 -49,12l-66 0 0 54 66 0c24,0 45,4 57,12 13,8 16,25 16,45 0,17 -7,34 -20,41 -12,13 -32,17 -57,17 -24,0 -46,-8 -57,-21 -17,-12 -25,-28 -25,-45l-66 0 0 4c0,38 12,66 41,87 29,20 66,29 103,29 45,0 78,-9 107,-29 28,-21 41,-46 41,-83 0,-20 -5,-37 -16,-53 -5,-16 -17,-25 -42,-33zm456 115l0 -180c0,-42 -12,-70 -37,-95 -24,-21 -62,-33 -102,-33 -42,0 -79,12 -103,33 -29,21 -42,50 -38,74l0 4 67 0c0,-17 7,-28 20,-41 12,-12 33,-16 54,-16 24,0 44,7 57,20 12,12 21,29 21,54l0 36 -74 0c-49,0 -91,8 -120,29 -29,20 -45,49 -45,82 0,38 9,62 29,82 20,21 49,29 90,29 25,0 46,-4 66,-17 20,-12 37,-28 49,-45 0,9 0,17 5,25 0,8 4,20 4,29l69 0c-4,-12 -8,-25 -8,-37 -4,-8 -4,-21 -4,-33zm-66 -37c-4,17 -20,29 -37,45 -20,13 -41,21 -65,21 -21,0 -38,-4 -45,-17 -13,-7 -17,-24 -17,-41 0,-20 8,-33 24,-49 17,-13 38,-20 67,-20l78 0 0 61 -5 0zm485 -259l-70 0 0 321 -169 0 0 -321 -69 0 0 374 279 0 0 123 70 0 0 -176 -45 0 0 -321 4 0 0 0zm205 263l0 0 -4 -266 -65 0 0 373 65 0 165 -267 3 0 0 263 71 0 0 -374 -71 0 -164 271zm583 -263l-163 267 -5 0 0 -263 -66 0 0 375 66 0 164 -268 4 0 0 263 70 0 0 -374 -70 0z"/>
  <path class="fil2" d="M5258 1551c0,6 -1,11 -4,16 -4,5 -10,8 -17,11 -9,3 -20,5 -33,6 -14,2 -31,3 -52,3 -20,0 -37,-1 -51,-3 -14,-1 -25,-3 -32,-6 -9,-3 -14,-6 -17,-11 -4,-5 -5,-10 -5,-16l0 -893 -2 0 -317 892c-2,8 -6,14 -11,19 -6,5 -12,9 -21,12 -9,2 -20,4 -34,5 -13,1 -29,1 -48,1 -20,0 -36,0 -49,-2 -14,-2 -26,-3 -34,-7 -9,-3 -16,-6 -22,-11 -4,-5 -7,-10 -10,-17l-305 -892 -2 0 0 893c0,6 -2,11 -5,16 -3,5 -9,8 -17,11 -8,3 -20,5 -33,6 -14,2 -31,3 -51,3 -20,0 -38,-1 -52,-3 -13,-1 -24,-3 -32,-6 -9,-3 -14,-6 -17,-11 -3,-5 -5,-10 -5,-16l0 -977c0,-29 8,-51 23,-67 15,-15 35,-23 61,-23l146 0c26,0 49,2 68,6 18,5 35,12 48,22 14,10 25,22 34,39 9,16 17,36 24,60l236 653 3 0 245 -651c8,-24 16,-45 24,-61 10,-16 20,-29 31,-40 12,-10 25,-17 41,-22 16,-4 35,-6 56,-6l150 0c16,0 29,2 40,6 11,4 20,10 27,18 7,7 13,16 16,27 3,11 5,24 5,39l0 977zm992 -383c0,63 -8,122 -25,175 -17,54 -43,100 -78,138 -34,38 -77,68 -129,89 -52,21 -113,31 -183,31 -67,0 -126,-9 -176,-28 -49,-18 -90,-46 -123,-81 -33,-36 -57,-80 -73,-132 -16,-52 -24,-111 -24,-178 0,-64 9,-123 26,-176 17,-54 43,-100 77,-138 35,-38 78,-67 130,-88 52,-21 112,-32 182,-32 68,0 126,10 176,28 50,18 91,45 123,81 33,36 57,79 73,132 16,51 24,111 24,179zm-219 7c0,-37 -2,-71 -8,-102 -7,-32 -16,-59 -31,-83 -14,-23 -33,-41 -57,-54 -24,-13 -53,-20 -89,-20 -31,0 -59,6 -83,18 -24,12 -44,29 -59,51 -16,22 -27,49 -34,81 -8,31 -12,67 -12,107 0,37 3,72 9,103 7,32 17,59 31,82 13,23 32,41 56,54 24,13 53,19 89,19 32,0 60,-6 85,-17 23,-12 43,-29 58,-51 15,-22 26,-49 34,-80 8,-31 11,-67 11,-108zm1149 -11c0,68 -7,128 -22,182 -14,53 -35,99 -63,137 -28,38 -62,67 -102,88 -41,20 -86,30 -138,30 -25,0 -49,-2 -71,-7 -22,-5 -43,-12 -63,-23 -20,-11 -40,-25 -59,-41 -20,-17 -39,-37 -60,-59l0 82c0,7 -1,12 -5,16 -2,4 -8,8 -15,11 -7,3 -16,4 -28,5 -12,2 -26,2 -43,2 -18,0 -33,0 -44,-2 -12,-1 -21,-2 -28,-5 -7,-3 -12,-7 -15,-11 -2,-4 -4,-9 -4,-15l0 -1116c0,-6 2,-11 5,-16 3,-5 9,-8 17,-11 8,-4 19,-6 33,-7 14,-2 31,-3 52,-3 20,0 38,1 52,3 12,1 23,3 32,7 8,3 14,6 17,11 4,5 6,10 6,16l0 418c18,-19 38,-36 57,-49 19,-14 39,-25 57,-34 20,-9 39,-14 60,-19 20,-4 41,-6 64,-6 56,0 104,11 143,34 39,22 70,52 95,90 24,38 42,82 53,133 12,51 17,104 17,159l0 0zm-220 15c0,-32 -2,-63 -7,-93 -5,-30 -14,-56 -26,-79 -11,-24 -27,-42 -45,-56 -19,-13 -44,-20 -73,-20 -13,0 -27,2 -40,6 -14,3 -28,11 -43,20 -14,9 -29,22 -44,37 -16,16 -31,34 -48,56l0 252c29,38 58,67 85,87 28,20 56,30 87,30 27,0 51,-7 70,-21 19,-15 35,-33 48,-56 13,-22 22,-48 27,-77 6,-28 9,-57 9,-86l0 0zm606 375c0,5 -2,10 -6,14 -3,4 -9,8 -17,11 -8,3 -19,4 -33,6 -13,2 -30,2 -51,2 -22,0 -39,0 -52,-2 -14,-2 -25,-3 -32,-6 -9,-3 -15,-7 -18,-11 -4,-4 -5,-9 -5,-14l0 -756c0,-6 1,-11 5,-15 3,-4 9,-8 18,-11 7,-3 18,-6 32,-8 13,-1 30,-2 52,-2 21,0 38,1 51,2 14,2 25,5 33,8 8,3 14,7 17,11 4,4 6,9 6,15l0 756zm17 -1015c0,43 -9,73 -27,89 -17,17 -50,24 -97,24 -49,0 -81,-7 -98,-23 -16,-16 -25,-44 -25,-86 0,-42 9,-72 26,-89 18,-17 50,-26 98,-26 48,0 80,9 97,25 17,16 26,45 26,86zm650 -31c0,16 0,30 -1,40 -1,9 -3,17 -5,23 -2,5 -5,8 -8,10 -3,3 -6,4 -9,4 -5,0 -9,-1 -13,-4 -5,-2 -11,-3 -18,-6 -8,-2 -15,-4 -25,-7 -10,-1 -21,-2 -34,-2 -15,0 -28,2 -39,8 -11,4 -21,11 -27,22 -8,11 -13,24 -17,40 -3,17 -5,38 -5,62l0 69 139 0c5,0 10,2 14,5 4,3 8,7 10,14 4,6 5,15 7,27 2,11 2,24 2,41 0,32 -3,54 -9,67 -5,13 -13,20 -24,20l-139 0 0 613c0,5 -1,10 -5,14 -3,4 -9,8 -17,11 -8,3 -19,4 -33,6 -14,2 -32,2 -52,2 -21,0 -38,0 -51,-2 -15,-2 -26,-3 -33,-6 -9,-3 -15,-7 -18,-11 -3,-4 -5,-9 -5,-14l0 -613 -95 0c-10,0 -18,-7 -23,-20 -5,-13 -8,-35 -8,-67 0,-17 0,-30 2,-41 1,-12 3,-21 6,-27 2,-7 6,-11 10,-14 4,-3 9,-5 15,-5l93 0 0 -64c0,-51 6,-96 16,-135 10,-39 26,-71 47,-96 22,-26 50,-45 84,-59 33,-13 73,-19 119,-19 22,0 43,2 63,6 19,3 36,7 47,11 11,5 19,9 22,12 5,4 8,10 11,16 2,8 4,17 5,28 1,11 1,24 1,41zm309 1046c0,5 -2,10 -6,14 -3,4 -9,8 -17,11 -8,3 -19,4 -33,6 -13,2 -30,2 -51,2 -21,0 -39,0 -52,-2 -14,-2 -25,-3 -32,-6 -9,-3 -15,-7 -18,-11 -4,-4 -5,-9 -5,-14l0 -756c0,-6 1,-11 5,-15 3,-4 9,-8 18,-11 7,-3 18,-6 32,-8 13,-1 31,-2 52,-2 21,0 38,1 51,2 14,2 25,5 33,8 8,3 14,7 17,11 4,4 6,9 6,15l0 756zm17 -1015c0,43 -9,73 -27,89 -17,17 -50,24 -97,24 -48,0 -81,-7 -97,-23 -17,-16 -26,-44 -26,-86 0,-42 9,-72 27,-89 17,-17 49,-26 97,-26 48,0 80,9 97,25 18,16 26,45 26,86zm644 940c0,25 -2,44 -5,57 -3,14 -7,23 -12,28 -5,6 -13,10 -22,14 -11,5 -22,9 -36,11 -13,4 -27,6 -42,8 -17,2 -32,3 -48,3 -42,0 -79,-6 -110,-17 -31,-11 -57,-27 -78,-50 -20,-22 -35,-50 -45,-84 -9,-34 -14,-74 -14,-120l0 -388 -92 0c-11,0 -19,-7 -24,-20 -6,-13 -9,-35 -9,-67 0,-17 0,-30 2,-41 2,-12 4,-21 7,-27 2,-7 6,-11 11,-14 3,-3 8,-5 14,-5l91 0 0 -169c0,-6 2,-11 5,-15 3,-4 9,-9 17,-11 8,-4 19,-6 33,-8 14,-1 31,-1 52,-1 20,0 38,0 52,1 13,2 24,4 33,8 7,2 13,7 17,11 3,4 5,9 5,15l0 169 164 0c6,0 11,2 15,5 4,3 8,7 10,14 4,6 5,15 7,27 1,11 2,24 2,41 0,32 -3,54 -9,67 -6,13 -13,20 -24,20l-165 0 0 356c0,41 6,72 19,92 13,21 36,32 69,32 12,0 22,-1 31,-3 9,-3 17,-5 24,-8 7,-1 13,-4 18,-6 4,-2 9,-3 13,-3 3,0 7,1 10,3 3,2 5,5 7,11 2,6 3,15 5,25 1,10 2,23 2,39zm876 75c0,5 -1,10 -5,14 -3,4 -9,8 -17,11 -8,3 -19,4 -33,6 -13,2 -30,2 -51,2 -21,0 -39,0 -52,-2 -14,-2 -25,-3 -33,-6 -8,-3 -14,-7 -17,-11 -4,-4 -6,-9 -6,-14l0 -432c0,-37 -2,-66 -7,-87 -6,-21 -14,-39 -24,-53 -10,-16 -23,-27 -39,-36 -16,-8 -35,-12 -56,-12 -27,0 -54,10 -82,30 -27,19 -57,48 -87,86l0 504c0,5 -2,10 -5,14 -3,4 -8,8 -17,11 -8,3 -19,4 -33,6 -14,2 -31,2 -52,2 -20,0 -38,0 -52,-2 -12,-2 -23,-3 -32,-6 -8,-3 -14,-7 -17,-11 -3,-4 -5,-9 -5,-14l0 -758c0,-5 1,-10 4,-15 3,-4 8,-7 15,-11 7,-2 17,-5 29,-6 11,-1 26,-2 43,-2 19,0 33,1 45,2 12,1 21,4 28,6 6,4 11,7 13,11 4,5 5,10 5,15l0 87c42,-45 85,-79 128,-101 43,-23 88,-34 135,-34 52,0 95,9 131,26 34,17 63,40 85,69 21,29 38,63 47,102 9,39 14,86 14,141l0 468 0 0zm908 -401c0,26 -6,45 -17,58 -12,12 -28,19 -49,19l-461 0c0,32 5,61 12,87 8,26 20,48 37,66 17,19 38,32 64,42 27,10 58,14 94,14 38,0 71,-2 99,-7 28,-6 53,-11 73,-18 20,-7 38,-13 52,-18 13,-6 24,-9 32,-9 6,0 10,1 13,3 4,2 6,6 9,11 2,5 3,12 4,21 1,10 2,21 2,36 0,12 -1,23 -1,31 -1,9 -2,16 -3,22 -1,7 -3,12 -5,16 -2,5 -5,9 -9,12 -3,5 -14,10 -30,17 -17,7 -37,14 -62,20 -26,7 -56,13 -88,18 -33,5 -68,7 -105,7 -67,0 -127,-8 -177,-25 -51,-17 -92,-43 -127,-77 -34,-35 -58,-78 -75,-131 -17,-53 -25,-115 -25,-185 0,-67 8,-127 26,-182 17,-53 43,-99 77,-137 33,-38 73,-66 121,-86 48,-19 102,-30 162,-30 63,0 117,10 162,28 45,19 83,45 111,78 28,33 50,73 64,118 14,45 20,94 20,147l0 34 0 0zm-207 -61c2,-59 -10,-107 -36,-141 -26,-35 -66,-52 -119,-52 -27,0 -51,6 -71,16 -21,10 -37,23 -50,41 -14,17 -24,38 -31,61 -7,23 -11,49 -13,75l320 0 0 0zm917 247c0,43 -9,81 -25,114 -16,33 -39,60 -68,82 -29,22 -64,38 -105,49 -40,11 -83,17 -131,17 -28,0 -55,-2 -80,-7 -26,-4 -49,-9 -70,-16 -20,-6 -37,-13 -51,-20 -13,-7 -23,-13 -29,-20 -6,-5 -11,-15 -15,-28 -3,-11 -5,-30 -5,-56 0,-16 1,-28 2,-39 1,-9 3,-17 5,-23 2,-6 5,-10 8,-12 4,-2 8,-3 13,-3 6,0 15,4 28,10 12,8 27,16 45,24 18,9 39,17 63,24 25,8 52,12 82,12 19,0 37,-3 51,-7 15,-3 28,-9 39,-17 11,-7 20,-16 26,-28 6,-11 8,-24 8,-39 0,-17 -5,-31 -15,-43 -11,-13 -25,-23 -43,-33 -17,-8 -36,-16 -58,-25 -21,-8 -44,-16 -67,-26 -23,-10 -46,-21 -67,-33 -22,-12 -42,-28 -59,-46 -17,-18 -31,-40 -41,-65 -11,-25 -16,-57 -16,-91 0,-37 7,-70 21,-101 14,-29 35,-56 61,-77 27,-21 59,-38 97,-50 39,-12 82,-18 129,-18 25,0 48,2 70,5 23,4 43,8 61,13 18,5 33,10 46,16 13,6 21,11 27,16 5,4 9,8 12,12 2,5 3,10 4,16 2,6 3,13 4,22 0,8 0,19 0,32 0,16 0,28 0,37 -1,10 -3,18 -5,23 -1,6 -5,10 -8,12 -4,2 -7,3 -12,3 -5,0 -13,-3 -24,-9 -11,-6 -24,-12 -40,-19 -17,-6 -35,-13 -57,-18 -21,-7 -45,-10 -72,-10 -20,0 -36,2 -51,6 -14,5 -25,10 -34,17 -10,7 -16,16 -21,26 -5,10 -7,21 -7,31 0,18 6,33 17,45 10,12 24,22 42,32 17,8 37,17 59,25 23,8 46,16 69,26 22,9 45,20 68,32 22,12 43,28 59,46 18,18 33,39 43,65 11,25 17,55 17,89zm692 0c0,43 -7,81 -24,114 -15,33 -38,60 -68,82 -30,22 -65,38 -104,49 -41,11 -84,17 -131,17 -28,0 -56,-2 -82,-7 -25,-4 -48,-9 -68,-16 -21,-6 -38,-13 -51,-20 -14,-7 -24,-13 -30,-20 -7,-5 -12,-15 -14,-28 -4,-11 -6,-30 -6,-56 0,-16 0,-28 2,-39 1,-9 3,-17 4,-23 3,-6 6,-10 10,-12 2,-2 7,-3 12,-3 6,0 16,4 28,10 12,8 27,16 45,24 18,9 40,17 63,24 24,8 52,12 83,12 18,0 36,-3 51,-7 15,-3 28,-9 39,-17 11,-7 19,-16 25,-28 5,-11 8,-24 8,-39 0,-17 -5,-31 -16,-43 -11,-13 -24,-23 -41,-33 -17,-8 -38,-16 -59,-25 -22,-8 -44,-16 -67,-26 -23,-10 -46,-21 -68,-33 -21,-12 -40,-28 -58,-46 -17,-18 -31,-40 -42,-65 -10,-25 -15,-57 -15,-91 0,-37 7,-70 21,-101 15,-29 35,-56 61,-77 27,-21 60,-38 98,-50 38,-12 81,-18 129,-18 24,0 46,2 69,5 22,4 43,8 61,13 18,5 34,10 46,16 12,6 22,11 27,16 6,4 9,8 11,12 2,5 4,10 6,16 0,6 2,13 3,22 1,8 1,19 1,32 0,16 0,28 -1,37 -1,10 -3,18 -5,23 -2,6 -4,10 -8,12 -3,2 -7,3 -12,3 -5,0 -13,-3 -23,-9 -11,-6 -25,-12 -41,-19 -16,-6 -35,-13 -56,-18 -22,-7 -46,-10 -73,-10 -20,0 -37,2 -51,6 -14,5 -26,10 -35,17 -8,7 -16,16 -20,26 -4,10 -7,21 -7,31 0,18 6,33 16,45 11,12 26,22 43,32 17,8 38,17 60,25 22,8 45,16 68,26 23,9 46,20 68,32 23,12 42,28 60,46 18,18 31,39 42,65 11,25 16,55 16,89z"/>
 </g>
</svg>
